{
"err_invalid_character_to_charify": ["Lex"],
"err_typecheck_expect_int": ["Sema"],
"err_unexpected_typedef": ["Sema"],
"err_explicit_instantiation_requires_name": ["Sema"],
"err_drv_invalid_value": ["Frontend", "Driver"],
"err_static_assert_failed": ["Sema"],
"err_missing_vfs_overlay_file": ["Frontend"],
"err_introducing_special_friend": ["Sema"],
"err_unexpected_typedef_ident": ["Parse"],
"err_constexpr_tag": ["Sema"],
"err_template_param_list_matches_nontemplate": ["Sema"],
"err_template_spec_decl_out_of_scope": ["Sema"],
"err_union_as_base_class": ["Sema"],
"err_operator_overload_variadic": ["Sema"],
"err_mt_message": ["ARCMigrate"],
"err_config_scalar_return": ["Sema"],
"err_defaulted_special_member_params": ["Sema"],
"err_for_range_expected_decl": ["Parse"],
"err_atomic_builtin_must_be_pointer_intfltptr": ["Sema"],
"err_template_param_default_arg_missing": ["Sema"],
"ext_init_list_constant_narrowing": ["Sema"],
"err_array_size_explicit_conversion": ["Sema"],
"err_access_ctor": ["Sema"],
"err_ambiguous_base_to_derived_cast": ["Sema"],
"err_address_space_qualified_new": ["Sema"],
"err_expected_class_name": ["Parse"],
"err_typecheck_call_too_many_args_at_most_suggest": ["Sema"],
"err_illegal_union_or_anon_struct_member": ["Sema"],
"err_function_concept_exception_spec": ["Sema"],
"err_target_unsupported_unaligned": ["Driver"],
"err_dynamic_var_init": ["Sema"],
"err_static_data_member_reinitialization": ["Sema"],
"err_access_dtor_field": ["Sema"],
"err_builtin_requires_language": ["Sema"],
"err_attribute_dllimport_static_field_definition": ["Sema"],
"err_auto_new_deduction_failure": ["Sema"],
"err_function_concept_not_defined": ["Sema"],
"err_pp_include_too_deep": ["Lex"],
"err_qualified_member_nonclass": ["Sema"],
"err_override_exception_spec": ["Sema"],
"err_array_star_in_function_definition": ["Sema"],
"err_bad_new_type": ["Sema"],
"err_cast_pointer_to_non_pointer_int": ["Sema"],
"err_invalid_this_use": ["Sema"],
"err_expr_not_string_literal": ["Sema"],
"err_missing_atsign_prefix": ["Sema"],
"err_expected_fn_body": ["Parse"],
"err_destructor_typedef_name": ["Sema"],
"err_literal_operator_default_argument": ["Sema"],
"err_typecheck_sub_ptr_compatible": ["Sema"],
"err_init_capture_no_expression": ["Sema"],
"err_align_value_attribute_argument_not_int": ["Sema"],
"err_expected_property_name": ["Parse"],
"err_typecheck_call_too_few_args_at_least": ["Sema"],
"err_default_arg_makes_ctor_special": ["Sema"],
"err_event_t_addr_space_qual": ["Sema"],
"err_pp_empty_filename": ["Lex"],
"err_function_marked_override_not_overriding": ["Sema"],
"err_dependent_non_type_arg_in_partial_spec": ["Sema"],
"err_duplicate_mangled_name": ["CodeGen"],
"err_fallthrough_attr_outside_switch": ["Sema"],
"err_reference_to_local_var_in_enclosing_lambda": ["Sema"],
"err_l_square_l_square_not_attribute": ["Parse"],
"err_field_designator_non_aggr": ["Sema"],
"err_pp_linemarker_invalid_filename": ["Lex"],
"err_duplicate_member": ["Sema"],
"err_bad_cxx_cast_unrelated_class": ["Sema"],
"err_offsetof_record_type": ["Sema"],
"err_deep_exception_specs_differ": ["Sema"],
"err_pp_nested_paren": ["Lex"],
"err_drv_objc_gc_arr": ["Driver"],
"err_friend_def_in_local_class": ["Sema"],
"err_drv_invalid_argument_to_fdebug_prefix_map": ["Driver"],
"err_nonstatic_member_out_of_line": ["Sema"],
"err_attribute_weakref_not_global_context": ["Sema"],
"err_concept_wrong_decl_kind": ["Sema"],
"err_zero_version": ["Parse"],
"err_pch_undef": ["Serialization"],
"err_deleted_non_function": ["Parse", "Sema"],
"err_ovl_static_nonstatic_member": ["Sema"],
"err_break_not_in_loop_or_switch": ["Sema"],
"err_typecheck_vector_not_convertable": ["Sema"],
"err_non_virtual_pure": ["Sema"],
"err_analyzer_config_multiple_values": ["Frontend"],
"err_array_section_does_not_specify_contiguous_storage": ["Sema"],
"err_argument_required_after_attribute": ["Parse"],
"err_builtin_fn_use": ["Sema"],
"err_expected_unqualified_id": ["Parse"],
"err_auto_different_deductions": ["Sema"],
"err_pack_expansion_without_parameter_packs": ["Sema"],
"err_asm_immediate_expected": ["Sema"],
"err_expr_not_cce": ["Sema"],
"err_goto_ms_asm_label": ["Sema"],
"err_undeclared_label_use": ["Sema"],
"err_typecheck_invalid_lvalue_addrof_addrof_function": ["Sema"],
"error_ivar_use_in_class_method": ["Sema"],
"err_assoc_type_incomplete": ["Sema"],
"err_first_argument_to_cwsc_builtin_call": ["Sema"],
"err_field_incomplete": ["Sema"],
"err_designator_for_scalar_init": ["Sema"],
"err_thread_nontrivial_dtor": ["Sema"],
"err_asm_unknown_register_name": ["Sema"],
"err_covariant_return_ambiguous_derived_to_base_conv": ["Sema"],
"err_placement_new_non_placement_delete": ["Sema"],
"err_atomic_op_needs_trivial_copy": ["Sema"],
"err_offsetof_array_type": ["Sema"],
"err_pp_expr_bad_token_start_expr": ["Lex"],
"err_ivar_reference_type": ["Sema"],
"err_qualified_catch_declarator": ["Sema"],
"err_cxx11_attribute_forbids_arguments": ["Parse"],
"err_illegal_container_subscripting_op": ["Sema"],
"err_anonymous_record_with_function": ["Sema"],
"err_typecheck_cast_to_incomplete": ["Sema"],
"err_fe_expected_compiler_job": ["Frontend", "Tooling"],
"err_first_argument_to_cwsc_pdtor_call": ["Sema"],
"err_init_list_bad_dest_type": ["Sema"],
"err_destructor_name": ["Sema"],
"err_destructor_expr_type_mismatch": ["Sema"],
"err_dependent_typed_non_type_arg_in_partial_spec": ["Sema"],
"err_using_decl_can_not_refer_to_scoped_enum": ["Sema"],
"err_convertvector_non_vector": ["Sema"],
"err_extern_non_extern": ["Sema"],
"err_duplicate_case_differing_expr": ["Sema"],
"err_pp_operator_used_as_macro_name": ["Lex"],
"err_template_template_parm_no_parms": ["Sema"],
"err_nonfunction_block_type": ["Sema"],
"err_access_dtor_var": ["Sema"],
"err_drv_output_argument_with_multiple_files": ["Driver"],
"err_invalid_conversion_between_vectors": ["Sema"],
"err_typecheck_invalid_lvalue_addrof": ["Sema"],
"err_attribute_address_space_negative": ["Sema"],
"err_uncasted_send_to_unknown_any_method": ["Sema"],
"err_property_method_unavailable": ["Sema"],
"err_var_partial_spec_redeclared": ["Sema"],
"err_extraneous_token_before_semi": ["Parse"],
"err_asm_invalid_output_size": ["Sema"],
"err_anonymous_union_not_static": ["Sema"],
"ext_constexpr_function_never_constant_expr": ["Sema"],
"err_pp_duplicate_name_in_arg_list": ["Lex"],
"err_unsupported_unknown_any_call": ["Sema"],
"err_default_arg_in_partial_spec": ["Sema"],
"err_property_is_variably_modified": ["Sema"],
"err_ppc_builtin_only_on_pwr7": ["Sema"],
"err_verify_missing_line": ["Frontend"],
"err_bad_dynamic_cast_incomplete": ["Sema"],
"err_kern_call_not_global_function": ["Sema"],
"err_access_specifier_interface": ["Parse"],
"err_c11_noreturn_misplaced": ["Parse"],
"err_invalid_reference_qualifier_application": ["Parse"],
"err_concept_decl_invalid_specifiers": ["Sema"],
"err_pp_arc_cf_code_audited_syntax": ["Lex"],
"err_enumerator_does_not_exist": ["Sema"],
"err_expected_namespace_name": ["Sema", "Parse"],
"error_cannot_find_suitable_accessor": ["Sema"],
"err_attribute_address_space_too_high": ["Sema"],
"err_missing_module": ["Frontend"],
"err_invalid_declarator_in_function": ["Sema"],
"err_mode_not_primitive": ["Sema"],
"err_ambiguous_memptr_conv": ["Sema"],
"err_ms_property_has_set_accessor": ["Parse"],
"err_different_pass_object_size_params": ["Sema"],
"err_typecheck_cast_to_union_no_type": ["Sema"],
"err_anon_type_definition": ["Parse"],
"err_func_def_no_params": ["Parse"],
"err_target_unknown_abi": ["Basic"],
"err_typecheck_sclass_func": ["Sema"],
"err_typecheck_member_reference_unknown": ["Sema"],
"err_typecheck_assign_const": ["Sema"],
"err_pragma_invalid_keyword": ["Parse"],
"err_switch_multiple_conversions": ["Sema"],
"err_bad_dynamic_cast_not_class": ["Sema"],
"err_incomplete_base_class": ["Sema"],
"err_return_in_captured_stmt": ["Sema"],
"err_capture_of_abstract_type": ["Sema"],
"err_only_enums_have_underlying_types": ["Sema"],
"err_assoc_compatible_types": ["Sema"],
"err_for_range_invalid": ["Sema"],
"err_member_extra_qualification": ["Sema"],
"err_lambda_capture_anonymous_var": ["Sema"],
"err_call_incomplete_return": ["Sema"],
"err_this_capture_with_copy_default": ["Sema"],
"err_unavailable": ["ARCMigrate", "Basic", "Sema"],
"err_unsupported_unknown_any_expr": ["Sema"],
"err_no_submodule_suggest": ["Frontend"],
"err_multiple_default_labels_defined": ["Sema"],
"err_field_designator_nonfield": ["Sema"],
"err_offsetof_incomplete_type": ["Sema"],
"err_pch_targetopt_mismatch": ["Serialization"],
"err_bad_cxx_cast_member_pointer_size": ["Sema"],
"err_incomplete_array_member_init": ["Parse"],
"err_typename_refers_to_non_type_template": ["Parse"],
"err_template_member_noparams": ["Sema"],
"err_return_block_has_expr": ["Sema"],
"err_template_arg_not_convertible": ["Sema"],
"err_template_arg_reference_var": ["Sema"],
"err_expected_semi_after_attribute_list": ["Parse"],
"err_attribute_address_function_type": ["Sema"],
"err_verify_no_directives": ["Frontend"],
"err_attribute_dll_deleted": ["Sema"],
"err_invalid_string_udl": ["Lex", "Sema"],
"err_attr_objc_ownership_redundant": ["Sema"],
"err_drv_use_of_Z_option": ["Driver"],
"err_atomic_op_needs_atomic": ["Sema"],
"err_drv_cc_print_options_failure": ["Driver"],
"err_param_default_argument_nonfunc": ["Sema"],
"err_static_data_member_not_allowed_in_anon_struct": ["Sema"],
"err_static_non_static": ["Sema"],
"err_pragma_loop_invalid_argument_value": ["Sema"],
"err_invalid_var_template_spec_type": ["Sema"],
"err_drv_I_dash_not_supported": ["Driver"],
"err_format_attribute_requires_variadic": ["Sema"],
"err_explicit_instantiation_inline": ["Sema"],
"err_unsupported_bom": ["Basic"],
"err_func_def_incomplete_result": ["Sema"],
"err_drv_no_cuda_installation": ["Driver"],
"err_pack_expansion_length_conflict_multilevel": ["Sema"],
"err_member_reference_needs_call": ["Sema"],
"err_nosetter_property_incdec": ["Sema"],
"err_default_not_in_switch": ["Sema"],
"err_bad_character_encoding": ["Lex"],
"err_invalid_base_in_interface": ["Sema"],
"err_virtual_out_of_class": ["Sema"],
"err_ref_vm_type": ["Sema"],
"err_expected": ["Parse", "Lex"],
"err_typecheck_convert_incompatible_block_pointer": ["Sema"],
"err_mismatched_visibility": ["Sema"],
"err_typecheck_op_on_nonoverlapping_address_space_pointers": ["Sema"],
"err_invalid_pixel_decl_spec_combination": ["Sema"],
"err_opt_not_valid_with_opt": ["Basic"],
"err_attribute_weak_static": ["Sema"],
"err_illegal_super_cast": ["Parse"],
"err_inline_decl_follows_def": ["Sema"],
"err_friend_is_member": ["Sema"],
"err_var_concept_not_initialized": ["Sema"],
"err_redefinition_of_enumerator": ["Sema"],
"err_unable_to_make_temp": ["Driver", "Rewrite"],
"err_redefinition_variably_modified_typedef": ["Sema"],
"err_for_range_member_begin_end_mismatch": ["Sema"],
"err_invalid_super_scope": ["Sema"],
"err_flexible_array_init_needs_braces": ["Sema"],
"err_typecheck_nonviable_condition_incomplete": ["Sema"],
"err_reference_pipe_type": ["Sema"],
"err_capture_more_than_once": ["Sema"],
"err_typecheck_missing_return_type_incompatible": ["Sema"],
"err_wrong_sampler_addressspace": ["Sema"],
"err_format_strftime_third_parameter": ["Sema"],
"err_typecheck_comparison_of_pointer_integer": ["Sema"],
"err_upcast_to_inaccessible_base": ["Sema"],
"err_illegal_decl_reference_to_reference": ["Parse"],
"err_undeclared_use": ["Sema"],
"err_pch_with_compiler_errors": ["Serialization"],
"err_typecheck_pointer_arith_function_type": ["Sema"],
"err_spec_member_not_instantiated": ["Sema"],
"err_thread_unsupported": ["Sema"],
"err_access_dtor_exception": ["Sema"],
"err_thread_non_global": ["Sema"],
"err_incomplete_in_exception_spec": ["Sema"],
"err_nested_name_member_ref_lookup_ambiguous": ["Sema"],
"err_invalid_vfs_overlay": ["Frontend"],
"err_base_init_does_not_name_class": ["Sema"],
"err_catch_incomplete_ptr": ["Sema"],
"err_operator_delete_dependent_param_type": ["Sema"],
"err_template_qualified_declarator_no_match": ["Sema"],
"err_covariant_return_not_derived": ["Sema"],
"err_uuidof_with_multiple_guids": ["Sema"],
"err_template_arg_not_integral_or_enumeral": ["Sema"],
"err_typename_identifiers_only": ["Parse"],
"err_local_cant_init": ["Sema"],
"err_capture_default_non_local": ["Sema"],
"err_unterm_macro_invoc": ["Lex"],
"err_pp_invalid_tok_in_arg_list": ["Lex"],
"err_unknown_any_function": ["Sema"],
"err_template_spec_decl_out_of_scope_global": ["Sema"],
"err_unterminated_raw_string": ["Lex"],
"err_drv_command_signalled": ["Driver"],
"err_conditional_ambiguous": ["Sema"],
"err_implicit_instantiate_member_undefined": ["Sema"],
"err_atomic_exclusive_builtin_pointer_size": ["Sema"],
"err_constexpr_no_declarators": ["Sema"],
"err_attribute_pointers_only": ["Sema"],
"err_ovl_no_oper": ["Sema"],
"err_drv_invalid_int_value": ["Frontend"],
"err_ref_qualifier_constructor": ["Sema"],
"err_asm_operand_wide_string_literal": ["Parse"],
"error_property_setter_ambiguous_use": ["Sema"],
"err_param_default_argument_on_parameter_pack": ["Sema"],
"err_pure_friend": ["Sema"],
"ext_init_list_variable_narrowing": ["Sema"],
"err_fold_expression_empty": ["Sema"],
"err_fold_expression_bad_operand": ["Sema"],
"err_template_spec_redecl_global_scope": ["Sema"],
"err_expected_equal_designator": ["Parse"],
"err_pp_division_by_zero": ["Lex"],
"err_abstract_type_in_decl": ["Sema"],
"err_pp_colon_without_question": ["Lex"],
"err_case_not_in_switch": ["Sema"],
"err_pch_targetopt_feature_mismatch": ["Serialization"],
"err_target_unknown_triple": ["Basic"],
"err_conditional_ambiguous_ovl": ["Sema"],
"err_fe_cannot_link_module": ["CodeGen"],
"err_reference_to_local_var_in_enclosing_function": ["Sema"],
"err_bitfield_width_exceeds_type_width": ["Sema"],
"err_attribute_argument_vec_type_hint": ["Sema"],
"err_pragma_comment_malformed": ["Parse"],
"err_fe_error_reading_stdin": ["Frontend"],
"err_fold_operator_mismatch": ["Parse"],
"err_ucn_escape_basic_scs": ["Lex"],
"err_cxx11_attribute_forbids_ellipsis": ["Parse"],
"err_single_decl_assign_in_for_range": ["Parse"],
"err_drv_clang_unsupported": ["Driver"],
"err_for_range_identifier": ["Parse"],
"err_paste_at_start": ["Lex"],
"err_vm_func_decl": ["Sema"],
"err_typecheck_subscript_not_integer": ["Sema"],
"err_multiple_template_declarators": ["Parse"],
"err_template_arg_method": ["Sema"],
"err_ucn_control_character": ["Lex"],
"err_typecheck_arc_assign_self_class_method": ["Sema"],
"err_template_instantiate_within_definition": ["Sema"],
"err_availability_redundant": ["Parse"],
"err_destructor_cannot_be": ["Sema"],
"err_auto_var_init_no_expression": ["Sema"],
"err_imaginary_not_supported": ["Sema"],
"err_void_param_qualified": ["Sema"],
"err_unable_to_rename_temp": ["Frontend", "Rewrite"],
"err_fe_unable_to_load_plugin": ["FrontendTool", "StaticAnalyzer"],
"err_alignas_attribute_wrong_decl_type": ["Sema"],
"err_assoc_type_nonobject": ["Sema"],
"err_shufflevector_incompatible_vector": ["Sema"],
"err_gnu_inline_asm_disabled": ["Parse"],
"err_literal_operator_id_outside_namespace": ["Sema"],
"err_explicit_instantiation_storage_class": ["Sema"],
"err_typecheck_member_reference_type": ["Sema"],
"err_class_marked_final_used_as_base": ["Sema"],
"err_unexpected_scope_on_base_decltype": ["Parse"],
"err_bad_static_cast_overload": ["Sema"],
"err_using_decl_constructor_not_in_direct_base": ["Sema"],
"err_expected_star_this_capture": ["Parse"],
"err_ms_va_start_used_in_sysv_function": ["Sema"],
"err_template_arg_address_of_non_pointer": ["Sema"],
"err_explicit_instantiation_undefined_var_template": ["Sema"],
"err_increment_decrement_enum": ["Sema"],
"err_drv_no_ast_support": ["Driver"],
"err_fe_unable_to_interface_with_target": ["CodeGen"],
"err_attribute_size_too_large": ["Sema"],
"err_pp_include_in_assume_nonnull": ["Lex"],
"err_asm_unexpected_constraint_alternatives": ["Sema"],
"err_init_capture_multiple_expressions": ["Sema"],
"err_typecheck_call_too_few_args_suggest": ["Sema"],
"err_literal_operator_bad_param_count": ["Sema"],
"err_second_parameter_to_va_arg_abstract": ["Sema"],
"err_allocation_of_abstract_type": ["Sema"],
"err_typecheck_call_not_function": ["Sema"],
"err_typecheck_expect_scalar_operand": ["Sema"],
"err_value_init_for_array_type": ["Sema"],
"error_readonly_message_assignment": ["Sema"],
"err_anonymous_record_member_redecl": ["Sema"],
"err_typecheck_call_invalid_ordered_compare": ["Sema"],
"override_keyword_only_allowed_on_virtual_member_functions": ["Sema"],
"err_using_decl_redeclaration": ["Sema"],
"err_mem_init_not_member_or_class_suggest": ["Sema"],
"ext_register_storage_class": ["Sema"],
"err_destructor_tilde_scope": ["Parse"],
"err_tagless_friend_type_template": ["Sema"],
"err_cannot_open_file": ["CodeGen", "Basic", "Frontend"],
"err_cconv_varargs": ["Sema"],
"err_pp_expected_rparen": ["Lex"],
"err_typename_invalid_functionspec": ["Parse"],
"err_mutable_reference": ["Sema"],
"err_pseudo_dtor_destructor_non_type": ["Sema"],
"err_capture_does_not_name_variable": ["Sema"],
"err_for_range_decl_must_be_var": ["Sema"],
"err_reference_capture_with_reference_default": ["Sema"],
"err_static_main": ["Sema"],
"err_template_unnamed_class": ["Sema"],
"err_dimension_expr_not_constant_integer": ["Sema"],
"err_msasm_unsupported_arch": ["Parse"],
"err_for_co_await_not_range_for": ["Parse"],
"err_redefinition_different_namespace_alias": ["Sema"],
"err_typecheck_subscript_value": ["Sema"],
"err_expected_parentheses_around_typename": ["Parse"],
"err_variably_modified_template_arg": ["Sema"],
"err_invalid_non_static_member_use": ["Sema"],
"err_decl_negative_array_size": ["Sema"],
"err_defaulted_special_member_quals": ["Sema"],
"err_carries_dependency_param_not_function_decl": ["Sema"],
"err_base_specifier_attribute": ["Sema"],
"err_function_declared_typedef": ["Parse"],
"err_invalid_constexpr_member": ["Sema"],
"err_no_base_classes": ["Sema"],
"err_verify_missing_regex": ["Frontend"],
"err_mutable_const": ["Sema"],
"err_vector_incorrect_num_initializers": ["Sema"],
"err_pp_double_begin_of_assume_nonnull": ["Lex"],
"err_template_spec_extra_headers": ["Sema"],
"err_nogetter_property_incdec": ["Sema"],
"err_bad_cxx_cast_rvalue": ["Sema"],
"err_need_header_before_ms_uuidof": ["Sema"],
"err_fe_unable_to_create_target": ["CodeGen"],
"err_typecheck_deleted_function": ["Sema"],
"err_param_default_argument_references_param": ["Sema"],
"err_non_deleted_override": ["Sema"],
"err_parameters_retval_cannot_have_fp16_type": ["Sema"],
"err_pp_eof_in_arc_cf_code_audited": ["Lex"],
"err_typecheck_incomplete_tag": ["Sema"],
"err_template_outside_namespace_or_class_scope": ["Sema"],
"err_ambiguous_tag_hiding": ["Sema"],
"err_dereference_incomplete_type": ["Sema"],
"err_template_param_shadow": ["Sema"],
"err_template_arg_must_be_type_suggest": ["Sema"],
"err_literal_operator_template": ["Sema"],
"err_drv_invalid_gcc_output_type": ["Driver"],
"err_statically_allocated_object": ["Sema"],
"err_invalid_storage_class_in_func_decl": ["Parse", "Sema"],
"err_typecheck_converted_constant_expression": ["Sema"],
"err_using_decl_destructor": ["Sema"],
"err_pp_invalid_poison": ["Lex"],
"err_drv_unknown_argument": ["Frontend", "Driver"],
"err_different_asm_label": ["Sema"],
"err_decltype_in_declarator": ["Sema"],
"err_bad_cxx_cast_qualifiers_away": ["Sema"],
"err_language_linkage_spec_not_ascii": ["Sema"],
"err_variadic_device_fn": ["Sema"],
"err_attribute_argument_outof_range": ["Sema"],
"err_unspecified_vla_size_with_static": ["Parse"],
"err_pp_stringize_not_parameter": ["Lex"],
"err_ref_bad_target": ["Sema"],
"err_dynamic_and_noexcept_specification": ["Parse"],
"err_expected_catch": ["Parse"],
"err_format_attribute_result_not": ["Sema"],
"err_constexpr_local_var_no_init": ["Sema"],
"err_pp_unterminated_conditional": ["Lex"],
"err_typecheck_call_too_many_args_at_most_one": ["Sema"],
"err_typecheck_non_object_not_modifiable_lvalue": ["Sema"],
"err_declaration_does_not_declare_param": ["Parse"],
"err_atomic_op_needs_non_const_atomic": ["Sema"],
"err_member_not_yet_instantiated": ["Sema"],
"err_use_of_default_argument_to_function_declared_later": ["Sema"],
"err_temp_copy_ambiguous": ["Sema"],
"err_reference_bind_failed": ["Sema"],
"err_destructor_template_id": ["Parse"],
"err_asm_invalid_type_in_input": ["CodeGen", "Sema"],
"err_enumerator_too_large": ["Sema"],
"err_bad_static_cast_member_pointer_nonmp": ["Sema"],
"err_super_in_using_declaration": ["Parse"],
"err_tls_var_aligned_over_maximum": ["Sema"],
"err_auto_missing_trailing_return": ["Sema"],
"err_hex_constant_requires": ["Lex"],
"error_protected_ivar_access": ["Sema"],
"err_attribute_regparm_invalid_number": ["Sema"],
"err_init_objc_class": ["Sema"],
"err_unexpected_colon_in_nested_name_spec": ["Parse"],
"err_this_captured_by_reference": ["Parse"],
"err_friend_decl_does_not_match": ["Sema"],
"ext_increment_bool": ["Sema"],
"err_pp_import_directive_ms": ["Lex"],
"err_duplicate_default_assoc": ["Parse"],
"err_ovl_deleted_call": ["ARCMigrate", "Sema"],
"err_except_spec_unparsed": ["Parse"],
"err_missing_exception_specification": ["Sema"],
"err_no_template_suggest": ["Sema"],
"err_attribute_multiple_objc_gc": ["Sema"],
"err_throw_incomplete": ["Sema"],
"err_carries_dependency_missing_on_first_decl": ["Sema"],
"err_constexpr_var_requires_const_init": ["Sema"],
"err_conflicting_overriding_cc_attributes": ["Sema"],
"err_early_catch_all": ["Sema"],
"err_typecheck_addrof_dtor": ["Sema"],
"err_ctor_dtor_returns_void": ["Sema"],
"err_illegal_initializer_type": ["Sema"],
"err_destructor_with_params": ["Sema"],
"err_analyzer_config_no_value": ["Frontend"],
"err_va_start_used_in_wrong_abi_function": ["Sema"],
"err_typecheck_statement_requires_scalar": ["Sema"],
"err_invalid_qualified_destructor": ["Sema"],
"err_type_tag_for_datatype_not_ice": ["Sema"],
"err_auto_fn_used_before_defined": ["Sema"],
"err_seh_try_outside_functions": ["Sema"],
"err_fe_unable_to_open_output": ["Frontend"],
"err_missing_whitespace_digraph": ["Parse"],
"err_cconv_change": ["Sema"],
"err_typecheck_choose_expr_requires_constant": ["Sema"],
"err_incorrect_number_of_vector_initializers": ["Sema"],
"err_explicit_non_function": ["Sema"],
"err_bad_string_encoding": ["Lex"],
"err_drv_unsupported_opt_for_target": ["Driver"],
"err_attributes_are_not_compatible": ["Sema"],
"err_constexpr_var_non_literal": ["Sema"],
"err_variable_instantiates_to_function": ["Sema"],
"err_template_arg_member_ptr_base_derived_not_supported": ["Sema"],
"err_alias_declaration_not_identifier": ["Parse"],
"err_constructor_redeclared": ["Sema"],
"err_expected_statement": ["Parse"],
"err_pp_include_in_arc_cf_code_audited": ["Lex"],
"err_array_size_not_integral": ["Sema"],
"err_alias_declaration_specialization": ["Parse"],
"err_attribute_dll_member_of_dll_class": ["Sema"],
"err__Pragma_malformed": ["Lex"],
"err_excess_initializers": ["Sema"],
"err_anyx86_interrupt_called": ["Sema"],
"err_explicit_instantiation_constexpr": ["Sema"],
"err_constexpr_body_no_return": ["Sema"],
"err_ident_list_in_fn_declaration": ["Sema"],
"err_invalid_width_spec": ["Sema"],
"err_pch_langopt_mismatch": ["Serialization"],
"err_unexpected_friend": ["Sema"],
"err_invalid_form_pointer_member_function": ["Sema"],
"err_expected_lbrace_after_base_specifiers": ["Parse"],
"err_template_variable_noparams": ["Sema"],
"err_attribute_invalid_implicit_this_argument": ["Sema"],
"err_destructor_not_member": ["Sema"],
"err_for_range_deduction_failure": ["Sema"],
"err_drv_out_file_argument_with_multiple_sources": ["Driver"],
"err_illegal_initializer": ["Sema"],
"err_expected_template": ["Parse"],
"err_template_spec_redecl_out_of_scope": ["Sema"],
"err_type_defined_in_param_type": ["Sema"],
"err_stmt_attribute_invalid_on_decl": ["Sema"],
"err_character_too_large": ["Lex"],
"ext_reserved_user_defined_literal": ["Lex"],
"err_drv_omp_host_ir_file_not_found": ["Frontend"],
"err_verify_invalid_no_diags": ["Frontend"],
"err_template_nontype_parm_different_type": ["Sema"],
"err_vla_decl_in_file_scope": ["Sema"],
"err_target_unknown_fpmath": ["Basic"],
"err_redefinition": ["Sema"],
"err_invalid_vector_long_double_decl_spec": ["Sema"],
"err_drv_omp_host_target_not_supported": ["Frontend"],
"err_verify_invalid_range": ["Frontend"],
"err_atomic_op_needs_atomic_int_or_ptr": ["Sema"],
"err_template_spec_needs_header": ["Sema"],
"err_drv_unknown_stdin_type": ["Driver"],
"err_incomplete_object_call": ["Sema"],
"err_typecheck_cond_expect_int_float": ["Sema"],
"err_event_t_global_var": ["Sema"],
"err_array_init_incompat_wide_string_into_wchar": ["Sema"],
"err_attribute_sentinel_not_zero_or_one": ["Sema"],
"err_vla_decl_has_static_storage": ["Sema"],
"err_ref_flexarray_type": ["Sema"],
"err_param_default_argument_template_redecl": ["Sema"],
"err_reference_bind_init_list": ["Sema"],
"err_ownership_type": ["Sema"],
"err_template_param_default_arg_redefinition": ["Sema"],
"err_ucn_escape_invalid": ["Lex"],
"err_expected_either": ["Parse", "Sema"],
"err_availability_expected_platform": ["Parse"],
"err_cannot_form_pointer_to_member_of_reference_type": ["Sema"],
"err_sizeof_parameter_pack": ["Parse"],
"err_flexible_array_has_nontrivial_dtor": ["Sema"],
"err_ice_explicit_conversion": ["Sema"],
"ext_in_class_initializer_float_type_cxx11": ["Sema"],
"err_toomany_element_decls": ["Sema"],
"err_incorrect_defaulted_constexpr": ["Sema"],
"err_void_only_param": ["Sema"],
"err_typecheck_call_too_few_args_one": ["Sema"],
"ext_module_import_not_at_top_level_noop": ["Sema"],
"err_arg_with_address_space": ["Sema"],
"err_inline_nested_namespace_definition": ["Parse"],
"err_param_default_argument": ["Sema"],
"err_constexpr_virtual_base": ["Sema"],
"err_access_dtor_base": ["Sema"],
"err_auto_fn_no_return_but_not_auto": ["Sema"],
"err_mutable_nonmember": ["Sema"],
"err_type_trait_arity": ["Parse"],
"err_explicit_instantiation_undefined_member": ["Sema"],
"err_expected_fold_operator": ["Parse"],
"err_decltype_auto_initializer_list": ["Sema"],
"err_pp_used_poisoned_id": ["Lex"],
"err_no_member": ["Sema"],
"err_array_designator_too_large": ["Sema"],
"err_conv_function_not_member": ["Sema"],
"err_using_decl_nested_name_specifier_is_current_class": ["Sema"],
"err_missing_comma_before_ellipsis": ["Parse"],
"err_attribute_only_once_per_parameter": ["Sema"],
"err_invalid_vector_decl_spec_combination": ["Sema"],
"err_block_decl_ref_not_modifiable_lvalue": ["Sema"],
"err_bad_cstyle_cast_overload": ["Sema"],
"err_attribute_bad_neon_vector_size": ["Sema"],
"err_shufflevector_nonconstant_argument": ["Sema"],
"err_virtual_non_function": ["Sema"],
"error_arc_weak_ivar_access": ["Sema"],
"err_redefinition_different_typedef": ["Sema"],
"err_bad_reinterpret_cast_overload": ["Sema"],
"err_mismatched_exception_spec_explicit_instantiation": ["Sema"],
"err_expected_semi_for": ["Parse"],
"err_block_on_vm": ["Sema"],
"err_kern_is_nonstatic_method": ["Sema"],
"err_invalid_cpu_supports": ["Sema"],
"err_constexpr_union_ctor_no_init": ["Sema"],
"err_lvalue_to_rvalue_ref": ["Sema"],
"err_array_of_abstract_type": ["Sema"],
"err_array_init_wide_string_into_char": ["Sema"],
"err_inline_namespace_alias": ["Parse"],
"err_builtin_longjmp_unsupported": ["Sema"],
"err_typecheck_negative_array_size": ["Sema"],
"err_blocks_disable": ["Sema"],
"err_extern_c_global_conflict": ["Sema"],
"err_definition_of_implicitly_declared_member": ["Sema"],
"err_constexpr_local_var_non_literal_type": ["Sema"],
"err_overflow_builtin_must_be_int": ["Sema"],
"err_literal_operator_string_prefix": ["Parse"],
"err_catch_incomplete_ref": ["Sema"],
"err_incomplete_nested_name_spec": ["Sema"],
"err_ms_property_no_getter_or_putter": ["Parse"],
"err_ambiguous_reference": ["Sema"],
"err_unexpected_namespace": ["Sema"],
"err_pch_langopt_value_mismatch": ["Serialization"],
"err_in_class_initializer_non_constant": ["Sema"],
"err_anonymous_record_with_static": ["Sema"],
"err_typedef_changes_linkage": ["Sema"],
"err_rref_in_exception_spec": ["Sema"],
"err_catch_rvalue_ref": ["Sema"],
"err_template_parameter_default_friend_template": ["Sema"],
"err_altivec_empty_initializer": ["Sema"],
"err_ctor_init_missing_comma": ["Parse"],
"err_typecheck_illegal_increment_decrement": ["Sema"],
"err_typecheck_incomplete_array_needs_initializer": ["Sema"],
"err_pp_line_requires_integer": ["Lex"],
"err_enumerator_list_missing_comma": ["Parse"],
"err_bad_dynamic_cast_not_polymorphic": ["Sema"],
"err_drv_emit_llvm_link": ["Driver"],
"err_asm_empty": ["Parse"],
"err_drv_invalid_omp_target": ["Frontend"],
"err_out_of_line_template_id_type_names_constructor": ["Parse"],
"err_fallthrough_attr_invalid_placement": ["Sema"],
"err_base_init_direct_and_virtual": ["Sema"],
"err_returns_retained_mismatch": ["Sema"],
"err_implicit_empty_initializer": ["Sema"],
"err_decltype_auto_cannot_be_combined": ["Sema"],
"err_ms_property_duplicate_accessor": ["Parse"],
"err_explicit_instantiation_of_typedef": ["Sema"],
"err_pch_pp_detailed_record": ["Serialization"],
"err_var_spec_no_template": ["Sema"],
"err_expected_semi_after_static_assert": ["Parse"],
"err_type_defined_in_for_range": ["Sema"],
"err_unexpanded_parameter_pack": ["Sema"],
"err_goto_into_protected_scope": ["Sema"],
"err_template_param_pack_default_arg": ["Sema"],
"err_illegal_decl_pointer_to_reference": ["Sema"],
"err_redefinition_extern_inline": ["Sema"],
"err_out_of_line_default_deletes": ["Sema"],
"err_function_parameter_pack_without_parameter_packs": ["Sema"],
"err_invalid_suffix_constant": ["Lex"],
"err_paste_at_end": ["Lex"],
"err_auto_fn_virtual": ["Sema"],
"err_expected_member_name_or_semi": ["Parse"],
"err_drv_unsupported_option_argument": ["Driver"],
"ext_init_list_type_narrowing": ["Sema"],
"err_attribute_dllimport_data_definition": ["Sema"],
"err_function_specialization_in_class": ["Sema"],
"err_redefinition_different_kind": ["Sema"],
"err_ms_property_unknown_accessor": ["Parse"],
"err_atomic_op_needs_non_const_pointer": ["Sema"],
"err_unknown_nested_typename_suggest": ["Sema"],
"err_attribute_vecreturn_only_pod_record": ["Sema"],
"err_flexible_array_empty_aggregate": ["Sema"],
"err_pascal_string_too_long": ["Lex"],
"err_partial_spec_args_match_primary_template": ["Sema"],
"err_builtin_annotation_second_arg": ["Sema"],
"err_illegal_decl_array_of_auto": ["Sema"],
"err_integer_literal_too_large": ["Sema", "Lex"],
"err_defined_macro_name": ["Lex"],
"err_template_arg_ref_bind_ignores_quals": ["Sema"],
"err_expected_punc": ["Parse"],
"err_string_concat_mixed_suffix": ["Lex"],
"error_private_ivar_access": ["Sema"],
"err_attribute_dllimport_function_definition": ["Sema"],
"err_attribute_overloadable_missing": ["Sema"],
"err_drv_invalid_mfloat_abi": ["Driver"],
"err_addrof_function_disabled_by_enable_if_attr": ["Sema"],
"err_builtin_func_cast_more_than_one_arg": ["Sema"],
"err_access_dtor_temp": ["Sema"],
"err_non_type_template_arg_subobject": ["Sema"],
"err_illegal_decl_array_of_functions": ["Sema"],
"err_bad_reinterpret_cast_small_int": ["Sema"],
"err_access_friend_function": ["Sema"],
"err_drv_preamble_format": ["Frontend"],
"err_init_incomplete_type": ["Sema"],
"err_ovl_no_viable_oper": ["Sema"],
"err_friend_decl_defines_type": ["Parse"],
"err_pragma_push_pop_macro_malformed": ["Lex"],
"err_friend_not_first_in_declaration": ["Sema"],
"err_expected_end_of_enumerator": ["Parse"],
"err_invalid_attribute_on_virtual_function": ["Sema"],
"err_asm_naked_this_ref": ["Sema"],
"err_this_capture": ["Sema"],
"err_addr_ovl_not_func_ptrref": ["Sema"],
"err_using_dependent_value_is_type": ["Sema"],
"err_uninitialized_member_in_ctor": ["Sema"],
"err_access_dtor_vbase": ["Sema"],
"err_invalid_character_udl": ["Sema"],
"err_pp_double_begin_of_arc_cf_code_audited": ["Lex"],
"err_param_default_argument_missing": ["Sema"],
"err_explicit_instantiation_undefined_func_template": ["Sema"],
"err_ucn_escape_incomplete": ["Lex"],
"err_illegal_decl_array_incomplete_type": ["Sema"],
"err_defaulted_special_member_copy_const_param": ["Sema"],
"err_invalid_pcs": ["Sema"],
"err_template_kw_missing": ["Sema"],
"err_ms_property_expected_comma_or_rparen": ["Parse"],
"err_constant_integer_arg_type": ["Sema"],
"err_asm_invalid_output_constraint": ["Sema"],
"err_expected_less_after": ["Parse"],
"err_pragma_loop_missing_argument": ["Parse"],
"err_override_control_interface": ["Parse"],
"err_expected_version": ["Parse"],
"err_ice_ambiguous_conversion": ["Sema"],
"err_invalid_asm_value_for_constraint": ["Sema"],
"err_typecheck_call_too_many_args_one": ["Sema"],
"err_convertvector_incompatible_vector": ["Sema"],
"err_operator_new_delete_template_too_few_parameters": ["Sema"],
"err_seh_try_unsupported": ["Sema"],
"err_operator_delete_param_type": ["Sema"],
"err_template_arg_not_pointer_to_member_form": ["Sema"],
"err_no_member_suggest": ["Sema"],
"err_attribute_dll_redeclaration": ["Sema"],
"err_nested_name_spec_is_not_class": ["Sema"],
"err_auto_new_ctor_multiple_expressions": ["Sema"],
"err_constexpr_virtual": ["Sema"],
"err_explicit_instantiation_enum": ["Parse"],
"err_conv_function_with_complex_decl": ["Sema"],
"err_typecheck_cond_expect_nonfloat": ["Sema"],
"err_template_id_not_a_type": ["Sema"],
"err_concept_decls_may_only_appear_in_namespace_scope": ["Sema"],
"err_type_defined_in_type_specifier": ["Sema"],
"err_typecheck_arithmetic_incomplete_type": ["Sema"],
"err_using_decl_nested_name_specifier_is_not_class": ["Sema"],
"err_incomplete_receiver_type": ["Sema"],
"err_reference_to_local_var_in_enclosing_block": ["Sema"],
"err_template_defn_explicit_instantiation": ["Parse"],
"err_pseudo_dtor_call_with_args": ["Sema"],
"err_this_static_member_func": ["Sema"],
"err_ellipsis_first_param": ["Sema"],
"err_64_bit_builtin_32_bit_tgt": ["Sema"],
"err_attribute_requires_arguments": ["Parse"],
"err_pp_line_digit_sequence": ["Lex"],
"err_throw_incomplete_ptr": ["Sema"],
"err_base_class_has_flexible_array_member": ["Sema"],
"err_friend_invalid_in_context": ["Parse"],
"err_fe_unable_to_load_pch": ["Frontend"],
"err_deleted_decl_not_first": ["Sema"],
"err_right_angle_bracket_equal_needs_space": ["Parse"],
"err_in_class_initializer_non_const": ["Sema"],
"err_drv_mg_requires_m_or_mm": ["Driver"],
"err_fe_remap_missing_from_file": ["Frontend"],
"err_array_designator_empty_range": ["Sema"],
"err_pp_expected_comma_in_arg_list": ["Lex"],
"err_static_function_scope": ["Sema"],
"err_in_class_initializer_not_yet_parsed": ["Sema"],
"err_delete_incomplete_class_type": ["Sema"],
"err_invalid_operator_on_type": ["Parse"],
"err_template_tag_noparams": ["Sema"],
"err_drv_command_failed": ["Driver"],
"err_init_method_bad_return_type": ["Sema"],
"err_dependent_tag_decl": ["Sema"],
"err_constexpr_non_literal_param": ["Sema"],
"err_aligned_attribute_argument_not_int": ["Sema"],
"err_in_class_initializer_bad_type": ["Sema"],
"err_fe_pch_malformed_block": ["Serialization"],
"err_variably_modified_new_type": ["Sema"],
"err_lambda_in_constant_expression": ["Sema"],
"err_array_size_non_int": ["Sema"],
"err_fe_expected_clang_command": ["Frontend", "Tooling"],
"err_explicit_instantiation_in_class": ["Sema"],
"err_main_arg_wrong": ["Sema"],
"err_template_spec_default_arg": ["Sema"],
"err_need_header_before_typeid": ["Sema"],
"err_explicit_spec_non_template": ["Parse"],
"err_missing_before_module_end": ["Parse"],
"err_multiple_final_overriders": ["Sema"],
"err_typecheck_statement_requires_integer": ["Sema"],
"err_typecheck_converted_constant_expression_disallowed": ["Sema"],
"err_array_init_not_init_list": ["Sema"],
"err_pragma_loop_invalid_argument_type": ["Sema"],
"err_init_capture_deduction_failure": ["Sema"],
"err_covariant_return_type_different_qualifications": ["Sema"],
"err_attribute_weakref_without_alias": ["Sema"],
"err_typecheck_incomplete_type_not_modifiable_lvalue": ["Sema"],
"err_flexible_array_virtual_base": ["Sema"],
"err_auto_var_init_multiple_expressions": ["Sema"],
"err_drv_command_failure": ["Driver"],
"err_pragma_optimize_extra_argument": ["Parse"],
"err_stmtexpr_file_scope": ["Parse"],
"err_static_overrides_virtual": ["Sema"],
"err_typecheck_sclass_fscope": ["Sema"],
"err_for_range_dereference": ["Sema"],
"err_malformed_std_initializer_list": ["Sema"],
"err_alias_not_supported_on_nvptx": ["Sema"],
"err_invalid_incomplete_type_use": ["Sema"],
"err_no_accessor_for_property": ["Sema"],
"err_invalid_vector_long_decl_spec": ["Sema"],
"err_variably_modified_typeid": ["Sema"],
"err_pragma_loop_compatibility": ["Sema"],
"err_anonymous_record_bad_member": ["Sema"],
"err_expected_type": ["Parse"],
"err_repeat_attribute": ["Sema"],
"err_sizeof_pack_no_pack_name": ["Sema"],
"err_atomic_builtin_must_be_pointer_intptr": ["Sema"],
"err_ovl_ambiguous_object_call": ["Sema"],
"err_literal_operator_invalid_param": ["Sema"],
"err_expr_not_ice": ["Sema"],
"err_ovl_no_viable_member_function_in_call": ["Sema"],
"err_lambda_missing_parens": ["Parse"],
"err_anon_bitfield_width_exceeds_type_width": ["Sema"],
"err_expected_field_designator": ["Parse"],
"err_explicit_specialization_inconsistent_storage_class": ["Sema"],
"err_conditional_vector_size": ["Sema"],
"err_bad_lvalue_to_rvalue_cast": ["Sema"],
"err_typecheck_invalid_restrict_invalid_pointee": ["Sema"],
"err_cond_voidptr_arc": ["Sema"],
"err_field_designator_unknown_suggest": ["Sema"],
"err_drv_invalid_libcxx_deployment": ["Driver"],
"err_vla_in_sfinae": ["Sema"],
"err_non_ascii": ["Lex"],
"err_storageclass_invalid_for_member": ["Sema"],
"err_switch_explicit_conversion": ["Sema"],
"err_storage_class_for_static_member": ["Sema"],
"err_invalid_declarator_in_block": ["Sema"],
"err_pp_unmatched_end_of_arc_cf_code_audited": ["Lex"],
"err_pp_eof_in_assume_nonnull": ["Lex"],
"err_operator_new_default_arg": ["Sema"],
"err_qualified_friend_not_found": ["Sema"],
"err_member_qualification": ["Sema"],
"err_vm_decl_in_file_scope": ["Sema"],
"err_constexpr_function_try_block": ["Sema"],
"err_template_arg_thread_local": ["Sema"],
"err_constructor_return_type": ["Sema"],
"err_drv_modules_validate_once_requires_timestamp": ["Driver"],
"err_ms_property_expected_accessor_name": ["Parse"],
"err_pointer_to_member_type": ["Sema"],
"err_destructor_redeclared": ["Sema"],
"err_pp_file_not_found_not_fatal": ["Lex"],
"err_member_name_of_class": ["Sema"],
"err_expected_semi_decl_list": ["Parse"],
"err_conv_function_with_params": ["Sema"],
"err_multichar_utf_character_literal": ["Lex"],
"err_nontemporal_builtin_must_be_pointer": ["Sema"],
"err_use_with_wrong_tag": ["Sema"],
"err_atomic_init_constant": ["Sema"],
"err_template_linkage": ["Sema"],
"err_main_surplus_args": ["Sema"],
"err_as_qualified_auto_decl": ["Sema"],
"err_drv_invalid_version_number": ["Driver"],
"err_second_parameter_to_va_arg_incomplete": ["Sema"],
"err_typecheck_member_reference_ivar": ["Sema"],
"err_invalid_vector_long_long_decl_spec": ["Sema"],
"err_attribute_wrong_number_arguments": ["Sema"],
"err_escape_too_large": ["Lex"],
"err_subscript_function_type": ["Sema"],
"err_fe_error_opening": ["Frontend"],
"err_conv_function_to_function": ["Sema"],
"err_invalid_digit": ["Lex"],
"err_two_right_angle_brackets_need_space": ["Parse"],
"err_decl_attribute_invalid_on_stmt": ["Sema"],
"err_for_range_iter_deduction_failure": ["Sema"],
"err_auto_variable_cannot_appear_in_own_initializer": ["Sema"],
"err_asm_tying_incompatible_types": ["Sema"],
"err_attribute_argument_out_of_range": ["Sema"],
"err_alignment_dependent_typedef_name": ["Sema"],
"err_declarator_need_ident": ["Sema"],
"err_initializer_string_for_char_array_too_long": ["Sema"],
"err_generic_sel_multi_match": ["Sema"],
"err_mempointer_in_nonclass_type": ["Sema"],
"err_expected_semi_declaration": ["Parse"],
"err_expected_comma_or_rsquare": ["Parse"],
"err_explicit_non_ctor_or_conv_function": ["Sema"],
"err_x86_builtin_32_bit_tgt": ["Sema"],
"err_ref_non_value": ["Sema"],
"err_verify_invalid_content": ["Frontend"],
"err_pseudo_dtor_base_not_scalar": ["Sema"],
"err_array_new_needs_size": ["Sema"],
"err_fe_invalid_code_complete_file": ["Frontend"],
"err_conflicting_types": ["Sema"],
"err_array_static_not_outermost": ["Sema"],
"err_machine_mode": ["Sema"],
"err_typecheck_converted_constant_expression_indirect": ["Sema"],
"err_template_arg_list_different_arity": ["Sema"],
"err_mutable_function": ["Sema"],
"err_offsetof_bitfield": ["Sema"],
"err_explicit_instantiation_member_function_not_instantiated": ["Sema"],
"err_sampler_argument_required": ["Sema"],
"err_definition_of_explicitly_defaulted_member": ["Sema"],
"err_conv_function_redeclared": ["Sema"],
"err_cannot_pass_objc_interface_to_vararg_format": ["Sema"],
"err_attribute_wrong_decl_type": ["Sema"],
"err_distant_exception_spec": ["Sema"],
"err_template_kw_refers_to_non_template": ["Sema"],
"err_multiple_mem_initialization": ["Sema"],
"err_static_downcast_via_virtual": ["Sema"],
"err_invalid_neon_type_code": ["Sema"],
"err_deleted_override": ["Sema"],
"err_default_init_const": ["Sema"],
"err_defaulted_special_member_variadic": ["Sema"],
"err_verify_missing_end": ["Frontend"],
"err_invalid_vector_bool_decl_spec": ["Sema"],
"err_template_kw_refers_to_class_template": ["Sema"],
"err_typecheck_unary_expr": ["Sema"],
"err_param_with_void_type": ["Sema"],
"err_attribute_overloadable_no_prototype": ["Sema"],
"err_ovl_deleted_oper": ["Sema"],
"err_invalid_use_of_array_type": ["Sema"],
"err_asm_invalid_global_var_reg": ["Sema"],
"err_ms_declspec_type": ["Parse"],
"err_anonymous_record_with_type": ["Sema"],
"err_template_recursion_depth_exceeded": ["Sema"],
"err_access_dtor_ivar": ["Sema"],
"err_operator_new_delete_declared_in_namespace": ["Sema"],
"err_sizeof_alignof_function_type": ["Sema"],
"err_ovl_ambiguous_oper_binary": ["Sema"],
"err_operator_overload_post_incdec_must_be_int": ["Sema"],
"err_using_decl_can_not_refer_to_namespace": ["Sema"],
"err_drv_unsupported_opt": ["Driver"],
"err_typecheck_member_reference_ivar_suggest": ["Sema"],
"err_seh___except_block": ["Sema", "Parse"],
"err_exception_spec_not_parsed": ["Sema"],
"err_init_capture_deduction_failure_from_init_list": ["Sema"],
"err_at_in_class": ["Parse"],
"err_undeclared_var_use_suggest": ["Sema"],
"err_literal_operator_string_not_empty": ["Parse"],
"err_invalid_constexpr_var_decl": ["Sema"],
"err_literal_operator_extern_c": ["Sema"],
"err_typecheck_decl_incomplete_type": ["Sema"],
"err_qualified_typedef_declarator": ["Sema"],
"err_array_static_outside_prototype": ["Sema"],
"err_noreturn_lambda_has_return_expr": ["Sema"],
"err_non_extern_extern": ["Sema"],
"err_decltype_auto_function_declarator_not_declaration": ["Sema"],
"err_drv_invalid_Xarch_argument_isdriver": ["Driver"],
"err_typecheck_cond_incompatible_operands_null": ["Sema"],
"err_anyx86_interrupt_attribute": ["Sema"],
"err_invalid_member_in_interface": ["Sema", "Parse"],
"err_parens_pointer_member_function": ["Sema"],
"err_qualified_objc_access": ["Sema"],
"err_non_local_variable_decl_in_for": ["Sema"],
"err_illegal_decl_mempointer_to_reference": ["Sema"],
"err_expected_init_in_condition_lparen": ["Parse"],
"err_lambda_decl_ref_not_modifiable_lvalue": ["Sema"],
"err_first_argument_to_cwsc_not_call": ["Sema"],
"err_cxx11_attribute_repeated": ["Parse"],
"err_member_def_does_not_match_ret_type": ["Sema"],
"err_drv_unknown_language": ["Driver"],
"err_indirect_goto_in_protected_scope": ["Sema"],
"err_expected_lparen_after_type": ["Parse"],
"err_reference_bind_to_vector_element": ["Sema"],
"err_bad_dynamic_cast_not_ref_or_ptr": ["Sema"],
"err_explicit_instantiation_with_definition": ["Parse"],
"err_init_priority_object_attr": ["Sema"],
"err_covariant_return_incomplete": ["Sema"],
"err_typecheck_call_too_few_args": ["Sema"],
"err_target_unknown_cpu": ["Basic"],
"err_pp_linemarker_invalid_pop": ["Lex"],
"err_pragma_fp_contract_scope": ["Parse"],
"err_class_redeclared_with_different_access": ["Sema"],
"err_partial_specialization_friend": ["Sema"],
"err_cannot_pass_to_vararg": ["Sema"],
"err_missing_actual_pipe_type": ["Sema"],
"err_capture_block_variable": ["Sema"],
"err_invalid_constexpr": ["Sema"],
"err_expected_string_literal": ["Parse", "Lex"],
"err_explicit_instantiation_ambiguous": ["Sema"],
"err_ambiguous_member_multiple_subobjects": ["Sema"],
"err_fe_stdout_binary": ["Frontend"],
"err_label_end_of_compound_statement": ["Parse"],
"err_invalid_qualified_function_type": ["Sema"],
"err_pch_diagopt_mismatch": ["Serialization"],
"err_argument_invalid_range": ["Sema"],
"err_unknown_any_addrof": ["Sema"],
"err_field_designator_unknown": ["Sema"],
"err_misplaced_ivar": ["Sema"],
"err_drv_no_module_support": ["Driver"],
"err_auto_init_list_from_c": ["Sema"],
"err_in_class_initializer_not_yet_parsed_outer_class": ["Sema"],
"err_invalid_sign_spec": ["Sema"],
"err_invalid_thread": ["Sema"],
"err_template_arg_must_be_expr": ["Sema"],
"err_noreturn_missing_on_first_decl": ["Sema"],
"err_ovl_no_viable_function_in_init": ["Sema"],
"err_func_returning_array_function": ["Sema"],
"err_ice_incomplete_type": ["Sema"],
"err_drv_invalid_darwin_version": ["Driver"],
"err_availability_unknown_change": ["Parse"],
"err_c99_array_usage_cxx": ["Sema"],
"err_multiple_mem_union_initialization": ["Sema"],
"err_attribute_not_supported_in_lang": ["Sema"],
"err_invalid_conversion_between_vector_and_integer": ["Sema"],
"err_friend_decl_with_def_arg_must_be_def": ["Sema"],
"err_not_tag_in_scope": ["Sema"],
"err_downcast_from_inaccessible_base": ["Sema"],
"err_typecheck_call_too_few_args_at_least_suggest": ["Sema"],
"err_access_field_ctor": ["Sema"],
"err_expected_coloncolon_after_super": ["Parse"],
"err_typecheck_ivar_variable_size": ["Sema"],
"err_template_instantiate_undefined": ["Sema"],
"err_main_returns_nonint": ["Sema"],
"err_block_extern_cant_init": ["Sema"],
"err_field_with_address_space": ["Sema"],
"err_attr_tlsmodel_arg": ["Sema"],
"err_bad_cxx_cast_generic": ["Sema"],
"err_unknown_type_or_class_name_suggest": ["Sema"],
"err_decimal_unsupported": ["Sema"],
"err_explicit_instantiation_duplicate": ["Sema"],
"err_pp_error_opening_file": ["Lex"],
"err_nested_redefinition": ["Sema"],
"err_asm_invalid_lvalue_in_input": ["Sema"],
"err_ifunc_resolver_return": ["CodeGen"],
"err_regparm_mismatch": ["Sema"],
"err_using_decl_template_id": ["Sema"],
"err_ice_too_large": ["Sema"],
"err_drv_invalid_stdlib_name": ["Driver"],
"err_second_argument_to_cwsc_not_pointer": ["Sema"],
"err_static_block_func": ["Sema"],
"err_lambda_capture_flexarray_type": ["Sema"],
"err_block_returning_array_function": ["Sema"],
"err_ret_local_block": ["Sema"],
"err_conv_function_variadic": ["Sema"],
"err_auto_new_list_init": ["Sema"],
"err_bad_variable_name": ["Sema"],
"err_not_integral_type_bitfield": ["Sema"],
"err_ifunc_resolver_params": ["CodeGen"],
"err_bitfield_has_negative_width": ["Sema"],
"err_typecheck_addrof_temporary": ["Sema"],
"err_overflow_builtin_must_be_ptr_int": ["Sema"],
"err_namespace_nonnamespace_scope": ["Parse"],
"err_auto_fn_return_void_but_not_auto": ["Sema"],
"err_variable_concept_bool_decl": ["Sema"],
"err_template_spec_unknown_kind": ["Sema"],
"err_defaulted_copy_assign_not_ref": ["Sema"],
"err_pragma_push_visibility_mismatch": ["Sema"],
"err_lambda_impcap": ["Sema"],
"err_enum_class_reference": ["Sema"],
"err_union_member_of_reference_type": ["Sema"],
"err_format_attribute_not": ["Sema"],
"err_pragma_pointers_to_members_unknown_kind": ["Parse"],
"err_auto_bitfield": ["Sema"],
"err_attribute_cleanup_func_must_take_one_arg": ["Sema"],
"err_array_init_non_constant_array": ["Sema"],
"err_using_decl_conflict": ["Sema"],
"err_return_init_list": ["Sema"],
"ext_cce_narrowing": ["Sema"],
"err_concept_specialized": ["Sema"],
"err_test_module_file_extension_version": ["Frontend"],
"err_pp_bad_paste": ["Lex"],
"err_typecheck_member_reference_struct_union": ["Sema"],
"err_extraneous_closing_brace": ["Parse"],
"err_pragma_loop_precedes_nonloop": ["Sema"],
"err_new_array_init_args": ["Sema"],
"err_type_tag_for_datatype_too_large": ["Sema"],
"err_brackets_go_after_unqualified_id": ["Parse"],
"err_embedded_directive": ["Lex"],
"err_ovl_unresolvable": ["Sema"],
"err_fe_dependency_file_requires_MT": ["Frontend"],
"err_typecheck_ambiguous_condition": ["Sema"],
"ext_out_of_line_declaration": ["Sema"],
"err_static_illegal_in_new": ["Sema"],
"err_explicit_instantiation_must_be_global": ["Sema"],
"err_drv_malformed_sanitizer_blacklist": ["Driver"],
"err_pragma_options_align_mac68k_target_unsupported": ["Sema"],
"err_typecheck_field_variable_size": ["Sema"],
"err_new_incomplete_type": ["Sema"],
"err_typename_nested_not_found": ["Sema"],
"err_redeclaration_different_type": ["Sema"],
"err_pp_invalid_directive": ["Lex"],
"ext_typecheck_addrof_temporary": ["Sema"],
"err_expected_case_before_expression": ["Parse"],
"err_expected_while": ["Parse"],
"err_typecheck_vector_lengths_not_equal": ["Sema"],
"err_builtin_annotation_first_arg": ["Sema"],
"err_exception_spec_in_typedef": ["Sema"],
"err_var_spec_no_template_but_method": ["Sema"],
"err_class_on_template_template_param": ["Parse"],
"err_pp_malformed_ident": ["Lex"],
"err_asm_invalid_input_constraint": ["Sema"],
"err_access_lambda_capture": ["Sema"],
"err_unterminated___pragma": ["Lex"],
"err_atomic_builtin_must_be_pointer": ["Sema"],
"err_property_not_found": ["Sema"],
"err_anon_bitfield_has_negative_width": ["Sema"],
"err_tentative_def_incomplete_type": ["Sema"],
"err_attribute_dll_thread_local": ["Sema"],
"err_bad_parameter_name": ["Sema"],
"err_expected_expression": ["Parse"],
"err_drv_unknown_objc_runtime": ["Frontend", "Driver"],
"err_excess_initializers_in_char_array_initializer": ["Sema"],
"err_implied_std_initializer_list_not_found": ["Sema"],
"err_explicit_instantiation_data_member_not_instantiated": ["Sema"],
"err_asm_input_duplicate_match": ["Sema"],
"err_typecheck_zero_array_size": ["Sema"],
"err_subscript_nonfragile_interface": ["Sema"],
"err_typecheck_nonviable_condition": ["Sema"],
"err_invalid_member_use_in_static_method": ["Sema"],
"err_auto_fn_different_deductions": ["Sema"],
"err_qualified_friend_def": ["Sema"],
"err_no_external_assembler": ["Driver"],
"err_compound_qualified_function_type": ["Sema"],
"err_member_decl_does_not_match": ["Sema"],
"err_ambiguous_derived_to_base_conv": ["Sema"],
"err_auto_var_requires_init": ["Sema"],
"err_anonymous_property": ["Sema"],
"err_auto_var_deduction_failure": ["Sema"],
"err_pragma_optimize_invalid_argument": ["Parse"],
"err_uninitialized_member_for_assign": ["Sema"],
"err_pp_line_invalid_filename": ["Lex"],
"err_unexpected_namespace_attributes_alias": ["Parse"],
"err_attribute_argument_out_of_bounds": ["Sema"],
"err_anonymous_record_nonpublic_member": ["Sema"],
"err_illegal_decl_array_of_references": ["Sema"],
"err_scoped_enum_missing_identifier": ["Parse"],
"err_template_typedef": ["Sema"],
"err_typecheck_arr_assign_enumeration": ["Sema", "ARCMigrate"],
"err_section_conflict": ["Sema"],
"err_vm_decl_has_extern_linkage": ["Sema"],
"err_using_typename_non_type": ["Sema"],
"err_anonymous_struct_not_member": ["Sema"],
"err_asm_naked_parm_ref": ["Sema"],
"err_non_variable_decl_in_for": ["Sema"],
"err_out_of_line_constructor_template_id": ["Parse"],
"err_enum_template": ["Parse", "Sema"],
"err_typecheck_call_invalid_unary_fp": ["Sema"],
"err_bad_cxx_cast_scalar_to_vector_different_size": ["Sema"],
"err_using_decl_can_not_refer_to_class_member": ["Sema"],
"err_typecheck_comparison_of_fptr_to_void": ["Sema"],
"err_attribute_unsupported": ["Sema"],
"err_member_redeclared": ["Sema"],
"err_in_class_initializer_literal_type": ["Sema"],
"err_pch_macro_def_undef": ["Serialization"],
"err_invalid_asm_cast_lvalue": ["Sema"],
"err_switch_incomplete_class_type": ["Sema"],
"err_constexpr_redecl_mismatch": ["Sema"],
"err_explicit_instantiation_declaration_after_definition": ["Sema"],
"err_ovl_no_conversion_in_cast": ["Sema"],
"err_pp_unmatched_end_of_assume_nonnull": ["Lex"],
"err_invalid_vector_double_decl_spec": ["Sema"],
"err_fe_invalid_plugin_name": ["FrontendTool"],
"err_member_call_without_object": ["Sema"],
"err_availability_expected_change": ["Parse"],
"err_typecheck_comparison_of_distinct_pointers": ["Sema"],
"err_pp_expr_bad_token_binop": ["Lex"],
"err_block_on_nonlocal": ["Sema"],
"err_expected_init_in_condition": ["Parse"],
"err_ref_qualifier_overload": ["Sema"],
"err_pch_macro_def_conflict": ["Serialization"],
"err_noreturn_non_function": ["Sema"],
"err_fallthrough_attr_wrong_target": ["Sema"],
"err_designator_into_flexible_array_member": ["Sema"],
"err_template_arg_object_no_linkage": ["Sema"],
"err_type_safety_unknown_flag": ["Parse"],
"err_invalid_decl_spec_combination": ["Sema"],
"err_only_annotate_after_access_spec": ["Sema"],
"err_selector_element_type": ["Sema"],
"err_dup_virtual": ["Parse"],
"err_pragma_detect_mismatch_malformed": ["Parse"],
"err_target_unsupported_arch": ["Driver"],
"err_asm_bad_register_type": ["Sema"],
"err_function_definition_not_allowed": ["Parse"],
"err_global_call_not_config": ["Sema"],
"err_ovl_ambiguous_call": ["Sema"],
"err_template_spec_friend": ["Sema"],
"err_cconv_knr": ["Sema"],
"err_test_module_file_extension_format": ["Frontend"],
"err_attribute_argument_n_type": ["Sema"],
"err_sizeof_alignof_incomplete_type": ["Sema"],
"err_conditional_void_nonvoid": ["Sema"],
"err_half_const_requires_fp16": ["Sema"],
"err_bound_member_function": ["Sema"],
"err_array_designator_negative": ["Sema"],
"err_target_unsupported_fpmath": ["Basic"],
"err_templated_using_directive_declaration": ["Parse"],
"err_invalid_numeric_udl": ["Sema"],
"err_bracket_depth_exceeded": ["Parse"],
"err_typecheck_call_too_few_args_at_least_one": ["Sema"],
"err_fold_expression_packs_both_sides": ["Sema"],
"err_standalone_class_nested_name_specifier": ["Sema"],
"err_integer_sequence_negative_length": ["Sema"],
"err_alias_to_undefined": ["CodeGen"],
"err_pp_macro_not_identifier": ["Lex"],
"err_builtin_longjmp_invalid_val": ["Sema"],
"err_ovl_deleted_member_call": ["Sema"],
"err_drv_cuda_bad_gpu_arch": ["Driver"],
"err_late_asm_label_name": ["Sema"],
"err_operator_new_delete_invalid_result_type": ["Sema"],
"err_missing_module_name": ["Frontend"],
"err_exponent_has_no_digits": ["Lex"],
"err_implicit_object_parameter_init": ["Sema"],
"err_unsupported_string_concat": ["Lex"],
"err_no_suitable_delete_member_function_found": ["Sema"],
"err_defaulted_special_member_volatile_param": ["Sema"],
"err_expected_class_or_namespace": ["Sema"],
"err_delegating_ctor": ["Sema"],
"err_decltype_auto_compound_type": ["Sema"],
"err_typecheck_invalid_restrict_not_pointer": ["Sema"],
"err_bitfield_has_zero_width": ["Sema"],
"err_deleted_main": ["Sema"],
"err_function_needs_feature": ["CodeGen"],
"err_address_space_qualified_delete": ["Sema"],
"err_typecheck_lvalue_casts_not_supported": ["Sema"],
"err_non_asm_stmt_in_naked_function": ["Sema"],
"err_template_member": ["Sema"],
"err_ms_property_initializer": ["Parse"],
"err_bool_redeclaration": ["Parse"],
"err_thread_non_thread": ["Sema"],
"err_incomplete_typeid": ["Sema"],
"err_redefinition_different_type": ["Sema"],
"err_expected_parameter_pack": ["Parse"],
"err_template_arg_not_ice": ["Sema"],
"err_drv_clang_unsupported_opt_cxx_darwin_i386": ["Driver"],
"err_init_capture_paren_braces": ["Sema"],
"err_attribute_dll_ambiguous_default_ctor": ["Sema"],
"err_unknown_typename_suggest": ["Sema"],
"err_typecheck_convert_incompatible": ["Sema"],
"err_typecheck_member_reference_arrow": ["Sema"],
"err_enumerator_wrapped": ["Sema"],
"err_no_typeid_with_fno_rtti": ["Sema"],
"err_verify_missing_file": ["Frontend"],
"err_static_out_of_line": ["Sema"],
"err_concept_specified_specialization": ["Sema"],
"err_pp_invalid_udl": ["Lex"],
"err_access_decl": ["Sema"],
"err_pp_identifier_arg_not_identifier": ["Lex"],
"err_ref_array_type": ["Sema"],
"err_fe_error_reading": ["Frontend"],
"err_cast_pointer_from_non_pointer_int": ["Sema"],
"err_invalid_complex_spec": ["Sema"],
"err_verify_inconsistent_diags": ["Frontend"],
"err_virtual_in_union": ["Sema"],
"err_pch_version_too_old": ["Serialization"],
"err_not_class_template_specialization": ["Sema"],
"err_fe_not_a_pch_file": ["Serialization"],
"err_expected_kernel_void_return_type": ["Sema"],
"err_friend_explicit_instantiation": ["Parse"],
"err_arithmetic_nonfragile_interface": ["Sema"],
"err_cannot_pass_objc_interface_to_vararg": ["Sema"],
"err_base_must_be_class": ["Sema"],
"err_operator_arrow_circular": ["Sema"],
"err_init_non_aggr_init_list": ["Sema"],
"err_missing_default_ctor": ["Sema"],
"err_pp_expected_after": ["Lex"],
"err_not_integral_type_anon_bitfield": ["Sema"],
"err_invalid_token_after_toplevel_declarator": ["Parse"],
"err_trailing_return_in_parens": ["Sema"],
"err_drv_optimization_remark_pattern": ["Frontend"],
"err_template_arg_not_address_constant": ["Sema"],
"err_ext_vector_component_exceeds_length": ["Sema"],
"err_template_arg_not_address_of": ["Sema"],
"err_typedef_not_bitfield": ["Sema"],
"err_main_global_variable": ["Sema"],
"err_incomplete_type_used_in_type_trait_expr": ["Sema"],
"err_member_def_undefined_record": ["Sema"],
"err_unavailable_message": ["ARCMigrate", "Basic", "Sema"],
"err_asm_goto_not_supported_yet": ["Parse"],
"err_range_on_array_parameter": ["Sema"],
"err_cyclic_alias": ["CodeGen"],
"err_auto_var_deduction_failure_from_init_list": ["Sema"],
"err_pch_different_branch": ["Serialization"],
"err_typecheck_bool_condition": ["Sema"],
"err_attribute_invalid_size": ["Sema"],
"err_constexpr_dtor": ["Sema"],
"err_access": ["Sema"],
"err_partial_spec_fully_specialized": ["Sema"],
"err_fe_pch_malformed": ["Serialization"],
"err_typedef_not_identifier": ["Sema"],
"err_typename_invalid_storageclass": ["Parse"],
"err_complex_mode_vector_type": ["Sema"],
"err_invalid_protocol_qualifiers": ["Sema"],
"err_ovl_no_viable_conversion_in_cast": ["Sema"],
"ext_array_init_parens": ["Sema"],
"err_attribute_argument_is_zero": ["Sema"],
"err_attribute_dll_lambda": ["Sema"],
"err_indirect_goto_without_addrlabel": ["Sema"],
"err_ovl_deleted_object_call": ["Sema"],
"err_invalid_conversion_between_ext_vectors": ["Sema"],
"err_duplicate_ivar_declaration": ["Sema"],
"err_typecheck_call_too_many_args_suggest": ["Sema"],
"err_lambda_incomplete_result": ["Sema"],
"err_attributes_not_allowed": ["Parse"],
"err_template_arg_not_valid_template": ["Sema"],
"err_va_start_used_in_non_variadic_function": ["Sema"],
"override_keyword_hides_virtual_member_function": ["Sema"],
"err_pp_missing_macro_name": ["Lex"],
"err_illegal_decl_mempointer_to_void": ["Sema"],
"err_selector_element_const_type": ["Sema"],
"err_ref_init_ambiguous": ["Sema"],
"err_missing_param": ["Parse"],
"err_ellipsis_in_declarator_not_parameter": ["Sema"],
"err_pack_expansion_length_conflict": ["Sema"],
"err_constexpr_vla": ["Sema"],
"err_call_function_incomplete_return": ["Sema"],
"err_bad_const_cast_dest": ["Sema"],
"err_bad_memptr_lhs": ["Sema"],
"err_attribute_selectany_non_extern_data": ["Sema"],
"err_abi_tag_on_redeclaration": ["Sema"],
"err_default_arg_unparsed": ["Parse"],
"err_property_found_suggest": ["Sema"],
"err_paren_sizeof_parameter_pack": ["Parse"],
"err_using_directive_member_suggest": ["Sema"],
"err_using_namespace_in_class": ["Parse"],
"err_type_defined_in_result_type": ["Sema"],
"err_lambda_capture_default_arg": ["Sema"],
"err_default_template_template_parameter_not_template": ["Parse"],
"err_temp_copy_no_viable": ["Sema"],
"err_paren_after_colon_colon": ["Parse"],
"err_constexpr_non_literal_return": ["Sema"],
"err_typename_nested_not_type": ["Sema"],
"err_sizeof_pack_no_pack_name_suggest": ["Sema"],
"err_ambiguous_suitable_delete_member_function_found": ["Sema"],
"err_duplicate_virt_specifier": ["Parse"],
"err_fe_pch_file_overridden": ["Serialization"],
"err_misplaced_ellipsis_in_declaration": ["Parse"],
"err_typecheck_pointer_arith_void_type": ["Sema"],
"err_function_is_not_record": ["Parse"],
"err_mem_init_not_member_or_class": ["Sema"],
"err_address_of_label_outside_fn": ["Parse"],
"err_literal_operator_template_with_params": ["Sema"],
"err_drv_invalid_thread_model_for_target": ["Driver"],
"err_ms_property_expected_equal": ["Parse"],
"err_type_defined_in_alias_template": ["Sema"],
"err_bad_cxx_cast_vector_to_scalar_different_size": ["Sema"],
"err_address_of_function_with_pass_object_size_params": ["Sema"],
"err_expected_semi_after_expr": ["Parse"],
"err_attribute_regparm_wrong_platform": ["Sema"],
"err_template_param_different_kind": ["Sema"],
"err_invalid_use_of_function_type": ["Sema"],
"err_expected_external_declaration": ["Parse"],
"err_thread_dynamic_init": ["Sema"],
"err_nontemporal_builtin_must_be_pointer_intfltptr_or_vector": ["Sema"],
"err_thread_thread_different_kind": ["Sema"],
"err_typecheck_arc_assign_self": ["Sema"],
"err_unknown_template_name": ["Parse"],
"err_array_size_incomplete_type": ["Sema"],
"err_attribute_dll_not_extern": ["Sema"],
"err_reference_bind_drops_quals": ["Sema"],
"err_ovl_diff_return_type": ["Sema"],
"err_array_designator_non_array": ["Sema"],
"err_pragma_missing_argument": ["Parse"],
"err_partial_spec_redeclared": ["Sema"],
"err_underlying_type_of_incomplete_enum": ["Sema"],
"err_no_matching_local_friend_suggest": ["Sema"],
"err_property_function_in_objc_container": ["Sema"],
"err_auto_var_init_paren_braces": ["Sema"],
"err_attribute_uuid_malformed_guid": ["Sema"],
"err_conv_function_return_type": ["Sema"],
"err_unexpected_at": ["Parse"],
"err_iboutletcollection_builtintype": ["Sema"],
"err_for_range_incomplete_type": ["Sema"],
"err_static_kernel": ["Sema"],
"err_nested_non_static_member_use": ["Sema"],
"err_expected_comma_greater": ["Parse"],
"err_attribute_no_member_pointers": ["Sema"],
"err_bad_static_cast_pointer_nonpointer": ["Sema"],
"err_attribute_too_many_arguments": ["Sema"],
"err_template_arg_nontype_ambig": ["Sema"],
"err_unspecified_size_with_static": ["Parse"],
"err_enumerator_unnamed_no_def": ["Parse"],
"err_non_static_static": ["Sema"],
"err_not_found_by_two_phase_lookup": ["Sema"],
"err_capture_non_automatic_variable": ["Sema"],
"err_different_language_linkage": ["Sema"],
"err_init_conversion_failed": ["Sema"],
"err_constexpr_static_mem_var_requires_init": ["Sema"],
"err_systemz_invalid_tabort_code": ["Sema"],
"err_template_spec_syntax_non_template": ["Parse"],
"err_member_function_initialization": ["Sema"],
"err_template_spec_decl_class_scope": ["Sema"],
"err_atomic_builtin_pointer_size": ["Sema"],
"err_lvalue_reference_bind_to_unrelated": ["Sema"],
"err_nullability_conflicting": ["Parse", "Sema"],
"err_pp_file_not_found": ["Lex"],
"err_mainlike_template_decl": ["Sema"],
"err_pp_assume_nonnull_syntax": ["Lex"],
"err_hex_escape_no_digits": ["Lex"],
"err_alias_template_extra_headers": ["Sema"],
"err_template_arg_must_be_template": ["Sema"],
"err_inline_main": ["Sema"],
"err_invalid_vector_float_decl_spec": ["Sema"],
"err_pp_directive_required": ["Lex"],
"err_alias_template_expansion_into_fixed_list": ["Sema"],
"err_object_cannot_be_passed_returned_by_value": ["Sema"],
"err_memptr_conv_via_virtual": ["Sema"],
"err_bad_cxx_cast_vector_to_vector_different_size": ["Sema"],
"err_getter_not_found": ["Sema"],
"err_param_default_argument_references_this": ["Sema"],
"err_friend_decl_with_def_arg_redeclared": ["Sema"],
"err_pp_remainder_by_zero": ["Lex"],
"err_param_redefinition": ["Parse", "Sema"],
"err_type_requires_extension": ["Sema"],
"err_templated_invalid_declaration": ["Parse"],
"err_drv_conflicting_deployment_targets": ["Driver"],
"err_invalid_utf8": ["Lex"],
"err_non_type_template_arg_addr_label_diff": ["Sema"],
"err_auto_fn_deduction_failure": ["Sema"],
"err_conflict_marker": ["Lex"],
"err_dtor_expr_without_call": ["Sema"],
"err_pp_visibility_non_macro": ["Lex"],
"err_pp_expects_filename": ["Lex"],
"err_ident_in_dtor_not_a_type": ["Sema"],
"err_first_argument_to_va_arg_not_of_type_va_list": ["Sema"],
"err_pointer_to_member_oper_value_classify": ["Sema"],
"err_incomplete_member_access": ["Sema"],
"err_tag_reference_non_tag": ["Sema"],
"err_constructor_byvalue_arg": ["Sema"],
"err_addr_ovl_no_qualifier": ["Sema"],
"err_pragma_comment_unknown_kind": ["Parse"],
"err_template_spec_decl_friend": ["Sema"],
"err_drv_invalid_linker_name": ["Driver"],
"err_constexpr_main": ["Sema"],
"err_parameter_name_omitted": ["Sema"],
"err_defaulted_special_member_move_const_param": ["Sema"],
"err_unavailable_in_arc": ["Sema"],
"err_incompatible_exception_specs": ["Sema"],
"err_forward_ref_enum": ["Sema"],
"err_no_matching_param": ["Parse"],
"ext_module_import_in_extern_c": ["Sema"],
"err_using_decl_friend": ["Sema"],
"err_nested_name_spec_non_tag": ["Sema"],
"err_base_clause_on_union": ["Sema"],
"err_access_base_ctor": ["Sema"],
"err_template_arg_no_ref_bind": ["Sema"],
"err_template_arg_wrongtype_null_constant": ["Sema"],
"err_atomic_op_bitwise_needs_atomic_int": ["Sema"],
"err_param_default_argument_references_local": ["Sema"],
"err_new_array_of_auto": ["Sema"],
"err_invalid_pth_file": ["Lex"],
"err_function_concept_with_params": ["Sema"],
"err_reference_has_multiple_inits": ["Sema"],
"err_access_dtor": ["Sema"],
"err_pp_expected_value_in_expr": ["Lex"],
"err_drv_unknown_stdin_type_clang_cl": ["Driver"],
"err_invalid_declarator_global_scope": ["Sema"],
"err_anonymous_union_with_storage_spec": ["Sema"],
"err_ambiguous_member_multiple_subobject_types": ["Sema"],
"err_attribute_cleanup_func_arg_incompatible_type": ["Sema"],
"err_enum_mode_vector_type": ["Sema"],
"err_pp_missing_rparen_in_macro_def": ["Lex"],
"err_template_param_pack_must_be_last_template_parameter": ["Sema"],
"err_redefinition_of_label": ["Sema"],
"err_alignof_member_of_incomplete_type": ["Sema"],
"err_explicit_instantiation_nontemplate_type": ["Sema"],
"err_expected_template_parameter": ["Parse"],
"err_ice_not_integral": ["Sema"],
"err_typecheck_duplicate_vector_components_not_mlvalue": ["Sema"],
"err_template_arg_template_params_mismatch": ["Sema"],
"err_bad_dynamic_cast_not_ptr": ["Sema"],
"err_static_assert_expression_is_not_constant": ["Sema"],
"err_explicit_instantiation_without_template_id": ["Sema"],
"err_variable_object_no_init": ["Sema"],
"err_expected_id_building_module": ["Lex"],
"err_unexpected_unqualified_id": ["Parse"],
"err_expected_semi_after_namespace_name": ["Parse"],
"err_lexing_string": ["Lex"],
"err_alias_after_tentative": ["Sema"],
"err_bad_memptr_rhs": ["Sema"],
"err_invalid_astype_of_different_size": ["Sema"],
"err_invalid_char_raw_delim": ["Lex"],
"err_reference_to_void": ["Sema"],
"err_auto_new_requires_ctor_arg": ["Sema"],
"err_expected_after": ["Parse"],
"err_fe_pth_file_has_no_source_header": ["Frontend"],
"err_kern_type_not_void_return": ["Sema"],
"err_template_nontype_parm_bad_type": ["Sema"],
"err_enum_invalid_underlying": ["Sema"],
"err_at_defs_cxx": ["Parse"],
"err_pp_expected_ident_in_arg_list": ["Lex"],
"err_ovl_deleted_special_init": ["Sema"],
"err_attribute_sentinel_less_than_zero": ["Sema"],
"err_mismatched_ms_inheritance": ["Sema"],
"err_pp_linemarker_requires_integer": ["Lex"],
"err_maybe_falloff_nonvoid_block": ["Sema"],
"err_drv_invalid_output_with_multiple_archs": ["Driver"],
"err_operator_new_delete_declared_static": ["Sema"],
"err_deleted_function_use": ["Sema"],
"err_explicit_instantiation_unqualified_wrong_namespace": ["Sema"],
"err_attribute_too_few_arguments": ["Sema"],
"err_operator_overload_default_arg": ["Sema"],
"err_init_element_not_constant": ["Sema"],
"err_unknown_typename": ["Sema"],
"err_destructor_tilde_identifier": ["Parse"],
"err_invalid_token_after_declarator_suggest_equal": ["Parse"],
"err_internal_linkage_redeclaration": ["Sema"],
"err_qualified_param_declarator": ["Sema"],
"err_builtin_definition": ["Sema"],
"err_template_arg_must_be_type": ["Sema"],
"err_typecheck_address_of": ["Sema"],
"err_pp_opencl_variadic_macros": ["Lex"],
"err_template_param_list_different_arity": ["Sema"],
"err_not_direct_base_or_virtual": ["Sema"],
"err_va_arg_in_device": ["Sema"],
"err_typecheck_comparison_of_distinct_blocks": ["Sema"],
"err_drv_argument_only_allowed_with": ["Frontend", "Driver"],
"err_fe_pch_file_modified": ["Serialization"],
"err_unknown_analyzer_checker": ["StaticAnalyzer"],
"err_operator_overload_static": ["Sema"],
"err_ms_property_missing_accessor_kind": ["Parse"],
"err_drv_no_input_files": ["Driver"],
"ext_return_has_expr": ["Sema"],
"err_array_init_narrow_string_into_wchar": ["Sema"],
"err_for_range_storage_class": ["Sema"],
"err_nsobject_attribute": ["Sema"],
"err_uncasted_use_of_unknown_any": ["Sema"],
"err_typecheck_expression_not_modifiable_lvalue": ["Sema"],
"err_shared_var_init": ["Sema"],
"err_destructor_class_name": ["Sema"],
"err_using_decl_nested_name_specifier_is_not_base_class": ["Sema"],
"ext_return_missing_expr": ["Sema"],
"err_different_return_type_for_overriding_virtual_function": ["Sema"],
"err_attribute_aligned_too_great": ["Sema"],
"err_array_init_different_type": ["Sema"],
"err_defaulted_special_member_return_type": ["Sema"],
"err_uuidof_without_guid": ["Sema"],
"err_variably_modified_nontype_template_param": ["Sema"],
"err_bad_cxx_cast_bitfield": ["Sema"],
"err_msasm_unable_to_create_target": ["Parse"],
"err_vecstep_non_scalar_vector_type": ["Sema"],
"err_pointer_to_member_call_drops_quals": ["Sema"],
"err_collection_expr_type": ["Sema"],
"err_operator_overload_must_be": ["Sema"],
"err_reference_var_requires_init": ["Sema"],
"err_template_missing_args": ["Sema"],
"err_expected_member_or_base_name": ["Parse"],
"err_undef_interface_suggest": ["Sema"],
"err_ovl_no_viable_subscript": ["Sema"],
"err_filter_expression_integral": ["Sema"],
"err_noreturn_block_has_return_expr": ["Sema"],
"err_in_class_initializer_volatile": ["Sema"],
"err_pp_endif_without_if": ["Lex"],
"err_iboutletcollection_type": ["Sema"],
"err_attribute_vecreturn_only_vector_member": ["Sema"],
"err_constexpr_body_invalid_stmt": ["Sema"],
"err_constexpr_return_missing_expr": ["Sema"],
"err_no_member_overloaded_arrow": ["Sema"],
"err_extraneous_rparen_in_condition": ["Parse"],
"err_lambda_unevaluated_operand": ["Sema"],
"err_ovl_no_viable_function_in_call": ["Sema"],
"err_constexpr_ctor_missing_init": ["Sema"],
"not_incomplete_class_and_qualified_id": ["Sema"],
"err_reference_bind_to_bitfield": ["Sema"],
"err_missing_dependent_template_keyword": ["Parse"],
"err_expected_semi_after_stmt": ["Parse"],
"err_decrement_bool": ["Sema"],
"err_delete_explicit_conversion": ["Sema"],
"err_static_data_member_not_allowed_in_local_class": ["Sema"],
"err_flexible_array_init": ["Sema"],
"err_attribute_argument_type": ["Sema"],
"err_lvalue_reference_bind_to_temporary": ["Sema"],
"err_drv_invalid_remap_file": ["Frontend"],
"err_falloff_nonvoid_block": ["Sema"],
"err_ovl_ambiguous_oper_unary": ["Sema"],
"err_asm_register_size_mismatch": ["Sema"],
"err_pp_expr_bad_token_lparen": ["Lex"],
"err_array_size_ambiguous_conversion": ["Sema"],
"err_duplicate_case": ["Sema"],
"err_typecheck_call_too_many_args_at_most": ["Sema"],
"err_enum_redeclare_type_mismatch": ["Sema"],
"err_unknown_any_var_function_type": ["Sema"],
"err_addr_ovl_no_viable": ["Sema"],
"err_field_declared_as_function": ["Sema"],
"err_pch_modulecache_mismatch": ["Serialization"],
"err_expected_rparen_after": ["Parse"],
"err_function_template_spec_ambiguous": ["Sema"],
"err_subscript_incomplete_type": ["Sema"],
"err_addr_ovl_ambiguous": ["Sema"],
"error_no_subobject_property_setting": ["Sema"],
"err_deduced_return_type": ["Sema"],
"err_operator_arrow_depth_exceeded": ["Sema"],
"err_trailing_return_without_auto": ["Sema"],
"err_drv_no_such_file": ["Driver"],
"err_ovl_no_viable_object_call": ["Sema"],
"err_temp_copy_deleted": ["Sema"],
"err_explicit_instantiation_out_of_scope": ["Sema"],
"err_member_redeclared_in_instantiation": ["Sema"],
"err_attribute_requires_opencl_version": ["Sema"],
"err_first_argument_to_cwsc_block_call": ["Sema"],
"err_default_special_members": ["Parse", "Sema"],
"err_alignas_mismatch": ["Sema"],
"err_typecheck_call_too_many_args": ["Sema"],
"err_file_modified": ["Basic"],
"err_operator_new_dependent_param_type": ["Sema"],
"err_delegating_initializer_alone": ["Sema"],
"err_arm_invalid_specialreg": ["Sema"],
"err_fe_remap_missing_to_file": ["Frontend"],
"err_shift_rhs_only_vector": ["Sema"],
"err_auto_fn_return_init_list": ["Sema"],
"err_attribute_zero_size": ["Sema"],
"err_pragma_pop_visibility_mismatch": ["Sema"],
"err_param_default_argument_member_template_redecl": ["Sema"],
"err_template_spec_needs_template_parameters": ["Sema"],
"err_using_decl_constructor": ["Sema"],
"err_drv_invalid_arch_name": ["Driver"],
"err_auto_not_allowed_var_inst": ["Sema"],
"err_throw_abstract_type": ["Sema"],
"err_no_matching_local_friend": ["Sema"],
"err_member_function_call_bad_cvr": ["Sema"],
"err_pack_expansion_member_init": ["Sema"],
"err_mismatched_exception_spec": ["Sema"],
"err_function_template_partial_spec": ["Sema"],
"err_drv_no_neon_modifier": ["Driver"],
"err_convertvector_non_vector_type": ["Sema"],
"err_constexpr_local_var_static": ["Sema"],
"err_relocatable_without_isysroot": ["Frontend"],
"err_lvalue_reference_bind_to_initlist": ["Sema"],
"ext_pp_bad_paste_ms": ["Lex"],
"err_ovl_no_viable_literal_operator": ["Sema"],
"err_expected_lambda_body": ["Parse"],
"err_alias_not_supported_on_darwin": ["Sema"],
"err_template_arg_field": ["Sema"],
"err_ext_vector_component_name_illegal": ["Sema"],
"err_alignas_missing_on_definition": ["Sema"],
"err_undeclared_use_suggest": ["Sema"],
"err_circular_inheritance": ["Sema"],
"err_selected_explicit_constructor": ["Sema"],
"err_new_array_nonconst": ["Sema"],
"err_covariant_return_type_class_type_more_qualified": ["Sema"],
"err_no_dynamic_cast_with_fno_rtti": ["Sema"],
"err_typecheck_invalid_operands": ["Sema"],
"err_attribute_not_type_attr": ["Parse", "Sema"],
"err_using_requires_qualname": ["Sema"],
"err_cfstring_literal_not_string_constant": ["Sema"],
"err_ovl_ambiguous_member_call": ["Sema"],
"err_raw_delim_too_long": ["Lex"],
"err_conditional_vector_element_size": ["Sema"],
"err_exceptions_disabled": ["Sema"],
"err_default_delete_in_multiple_declaration": ["Parse"],
"err_typename_missing": ["Sema"],
"err_undeclared_use_of_module": ["Lex"],
"err_array_star_outside_prototype": ["Sema"],
"err_template_arg_not_object_or_func": ["Sema"],
"err_typecheck_indirection_requires_pointer": ["Sema"],
"err_sizeof_alignof_typeof_bitfield": ["Sema"],
"err_expected_class_name_not_template": ["Parse"],
"err_seh_expected_handler": ["Parse"],
"err_param_default_argument_missing_name": ["Sema"],
"err_selector_element_not_lvalue": ["Sema"],
"err_offsetof_field_of_virtual_base": ["Sema"],
"err_openmp_default_simd_align_expr": ["Sema"],
"err_template_parameter_default_template_member": ["Sema"],
"err_typecheck_incompatible_address_space": ["Sema"],
"err_function_concept_bool_ret": ["Sema"],
"err_inline_declaration_block_scope": ["Sema"],
"err_only_constructors_take_base_inits": ["Sema"],
"err_multiple_base_initialization": ["Sema"],
"err_nosetter_property_assignment": ["Sema"],
"err_unterminated_block_comment": ["Lex"],
"err_attribute_address_multiple_qualifiers": ["Sema"],
"err_nogetter_property_compound_assignment": ["Sema"],
"err_int_to_block_pointer": ["Sema"],
"err_nullability_cs_multilevel": ["Sema"],
"err_temp_copy_incomplete": ["Sema"],
"err_cast_selector_expr": ["Sema"],
"err_operator_overload_must_be_member": ["Sema"],
"err_ms___leave_not_in___try": ["Sema"],
"err_pseudo_dtor_type_mismatch": ["Sema"],
"err_tag_definition_of_typedef": ["Sema"],
"err_alignment_not_power_of_two": ["Sema"],
"err_incorrect_defaulted_exception_spec": ["Sema"],
"err_auto_not_allowed": ["Sema"],
"err_assoc_type_variably_modified": ["Sema"],
"err_operator_new_param_type": ["Sema"],
"err_expected_lbrace_in_compound_literal": ["Parse"],
"err_generic_sel_no_match": ["Sema"],
"err_seh___except_filter": ["Sema", "Parse"],
"err_ambiguous_delete_operand": ["Sema"],
"err_destructor_template": ["Sema"],
"err_empty_scalar_initializer": ["Sema"],
"err_final_function_overridden": ["Sema"],
"err_expected_qualified_after_typename": ["Parse"],
"err_duplicate_base_class": ["Sema"],
"err_drv_unable_to_remove_file": ["Driver"],
"err_cannot_pass_to_vararg_format": ["Sema"],
"err_template_spec_decl_function_scope": ["Sema"],
"err_declspec_after_virtspec": ["Parse"],
"err_catch_incomplete": ["Sema"],
"err_ovl_deleted_conversion_in_cast": ["Sema"],
"err_drv_no_linker_llvm_support": ["Driver"],
"err_noexcept_needs_constant_expression": ["Sema"],
"err_drv_invalid_Xarch_argument_with_args": ["Driver"],
"err_attribute_cleanup_arg_not_function": ["Sema"],
"err_flexible_array_union": ["Sema"],
"err_invalid_qualified_constructor": ["Sema"],
"err_typename_requires_specqual": ["Parse"],
"err_bitfield_member_init": ["Parse"],
"err_builtin_needs_feature": ["CodeGen"],
"err_reference_to_local_var_in_enclosing_context": ["Sema"],
"err_alias_is_definition": ["Sema"],
"err_literal_operator_outside_namespace": ["Sema"],
"err_block_return_missing_expr": ["Sema"],
"err_ovl_ambiguous_conversion_in_cast": ["Sema"],
"err_missing_type_specifier": ["Sema"],
"err_seh___finally_block": ["Parse"],
"err_unexpected_interface": ["Sema"],
"err_use_of_tag_name_without_tag": ["Parse", "Sema"],
"err_undeclared_var_use": ["Sema"],
"err_missing_end_of_definition": ["Parse"],
"err_operator_overload_needs_class_or_enum": ["Sema"],
"err_partial_spec_ordering_ambiguous": ["Sema"],
"err_invalid_declarator_scope": ["Sema"],
"err_enable_if_never_constant_expr": ["Sema"],
"err_invalid_conversion_between_vector_and_scalar": ["Sema"],
"err_digit_separator_not_between_digits": ["Lex"],
"err_typecheck_incompatible_ownership": ["Sema"],
"err_covariant_return_inaccessible_base": ["Sema"],
"err_unexpected_token_in_nested_name_spec": ["Parse"],
"err_using_directive_suggest": ["Sema"],
"err_static_not_bitfield": ["Sema"],
"err_too_few_args_in_macro_invoc": ["Lex"],
"err_enum_redeclare_fixed_mismatch": ["Sema"],
"err_alignas_underaligned": ["Sema"],
"err_virtual_member_function_template": ["Sema"],
"err_friend_decl_spec": ["Parse", "Sema"],
"err_mixing_cxx_try_seh_try": ["Sema"],
"err_using_decl_conflict_reverse": ["Sema"],
"err_record_with_pointers_kernel_param": ["Sema"],
"err_constructor_cannot_be": ["Sema"],
"err_typecheck_vector_not_convertable_non_scalar": ["Sema"],
"err_operator_new_delete_too_few_parameters": ["Sema"],
"err_deduced_non_type_template_arg_type_mismatch": ["Sema"],
"err_ownership_returns_index_mismatch": ["Sema"],
"err_language_linkage_spec_unknown": ["Sema"],
"err_template_arg_overload_type": ["Sema"],
"err_typecheck_cond_incompatible_operands": ["Sema"],
"err_ovl_deleted_special_oper": ["Sema"],
"err_function_template_spec_no_match": ["Sema"],
"err_param_default_argument_redefinition": ["Sema"],
"err_lambda_return_init_list": ["Sema"],
"err_no_submodule": ["Frontend"],
"err_field_instantiates_to_function": ["Sema"],
"err_uncasted_call_of_unknown_any": ["Sema"],
"err_conv_function_to_array": ["Sema"],
"err_expected_capture": ["Parse"],
"err_ns_attribute_wrong_parameter_type": ["Sema"],
"err_drv_invalid_pgo_instrumentor": ["Frontend"],
"err_ovl_ambiguous_init": ["Sema"],
"err_nullability_nonpointer": ["Sema"],
"err_asm_invalid_lvalue_in_output": ["Sema"],
"err_pch_version_too_new": ["Serialization"],
"err_pragma_loop_invalid_option": ["Parse"],
"error_rethrow_used_outside_catch": ["Sema"],
"err_typename_refers_to_using_value_decl": ["Sema"],
"err_unexpected_nested_namespace_attribute": ["Parse"],
"err_format_attribute_implicit_this_format_string": ["Sema"],
"err_constructor_bad_name": ["Parse"],
"err_unqualified_pointer_member_function": ["Sema"],
"err_switch_into_protected_scope": ["Sema", "ARCMigrate"],
"err_non_thread_thread": ["Sema"],
"err_template_parameter_pack_non_pack": ["Sema"],
"err_expected_lparen_after": ["Parse"],
"err_declspec_thread_on_thread_variable": ["Sema"],
"err_return_in_constructor_handler": ["Sema"],
"err_continue_not_in_loop": ["Sema"],
"err_unsupported_unknown_any_decl": ["Sema"],
"err_drv_bitcode_unsupported_on_toolchain": ["Driver"],
"err_specialization_after_instantiation": ["Sema"],
"err_enum_redeclare_scoped_mismatch": ["Sema"],
"err_operator_new_delete_dependent_result_type": ["Sema"],
"err_ref_qualifier_destructor": ["Sema"],
"err_pp_expected_eol": ["Lex"],
"err_builtin_setjmp_unsupported": ["Sema"],
"err_type_defined_in_condition": ["Sema"],
"err_vla_decl_has_extern_linkage": ["Sema"],
"err_too_many_args_in_macro_invoc": ["Lex"],
"err_copy_capture_with_copy_default": ["Sema"],
"err_init_reference_member_uninitialized": ["Sema"],
"err_ovl_deleted_init": ["Sema"],
"err_typename_invalid_constexpr": ["Parse"],
"err_template_arg_not_decl_ref": ["Sema"],
"err_verify_missing_start": ["Frontend"],
"err_call_incomplete_argument": ["Sema"],
"err_drv_missing_argument": ["Frontend", "Driver"],
"err_typename_nested_not_found_enable_if": ["Sema"],
"err_attribute_invalid_vector_type": ["Sema"],
"err_inline_non_function": ["Sema"],
"err_qualified_member_of_unrelated": ["Sema"],
"err_member_decl_does_not_match_suggest": ["Sema"],
"err_drv_unsupported_rtlib_for_platform": ["Driver"],
"err_destructor_variadic": ["Sema"],
"err_integer_sequence_integral_element_type": ["Sema"],
"err_template_decl_ref": ["Sema"],
"err_destructor_return_type": ["Sema"],
"err_realimag_invalid_type": ["Sema"],
"err_attribute_requires_positive_integer": ["Sema"],
"err_fe_no_pch_in_dir": ["Frontend"],
"err_pragma_message_malformed": ["Lex"],
"err_shufflevector_non_vector": ["Sema"],
"err_expected_type_name_after_typename": ["Parse"],
"err_drv_unsupported_linker": ["Driver"],
"err_template_arg_untyped_null_constant": ["Sema"],
"err_attribute_weakref_not_static": ["Sema"],
"err_sizeof_nonfragile_interface": ["Sema"],
"err_atomic_specifier_bad_type": ["Sema"],
"err_illegal_decl_mempointer_in_nonclass": ["Sema"],
"err_asm_invalid_input_size": ["Sema"],
"err_id_after_template_in_nested_name_spec": ["Parse"],
"err_drv_invalid_rtlib_name": ["Driver"],
"err_value_init_for_function_type": ["Sema"],
"err_template_inside_local_class": ["Sema"],
"err_bad_kernel_param_type": ["Sema"],
"err_array_too_large": ["Sema"],
"err_pp_linemarker_invalid_flag": ["Lex"],
"err_super_in_lambda_unsupported": ["Sema"],
"err_typecheck_invalid_restrict_not_pointer_noarg": ["Sema"],
"err_specialize_member_of_template": ["Sema"],
"err_inline_namespace_mismatch": ["Sema"],
"err_fe_action_not_available": ["FrontendTool"],
"err_asm_non_addr_value_in_memory_constraint": ["Sema"],
"err_tag_reference_conflict": ["Sema"],
"err_explicit_instantiation_not_known": ["Sema"],
"err_capture_of_incomplete_type": ["Sema"],
"err_typecheck_array_not_modifiable_lvalue": ["Sema"],
"err_init_list_bin_op": ["Parse"],
"err_bad_reinterpret_cast_reference": ["Sema"],
"err_attribute_section_invalid_for_target": ["Sema"],
"err_shufflevector_argument_too_large": ["Sema"],
"err_non_type_template_in_nested_name_specifier": ["Sema"],
"err_no_member_template_suggest": ["Sema"],
"err_mode_wrong_type": ["Sema"],
"err_typecheck_cond_expect_scalar": ["Sema"],
"err_typecheck_member_reference_suggestion": ["Sema"],
"err_pp_illegal_floating_literal": ["Lex"],
"err_incomplete_type": ["Sema"],
"err_atomic_load_store_uses_lib": ["Sema"],
"err_feature_check_malformed": ["Lex"],
"err_literal_operator_param": ["Sema"],
"err_delete_operand": ["Sema"],
"error_empty_enum": ["Parse"],
"err_fe_unable_to_read_pch_file": ["Serialization"],
"err_dependent_nested_name_spec": ["Sema"],
"err_reference_without_init": ["Sema"],
"err_asm_incomplete_type": ["Sema"],
"err_new_abi_tag_on_redeclaration": ["Sema"],
"err_drv_argument_not_allowed_with": ["Frontend", "Driver"],
"err_explicit_out_of_class": ["Sema"]
}
