Task,Group,Time
T8,control,240.309
All,control,240.309
T1,control,38.046
All,control,38.046
T7,experimental,89.069
All,experimental,89.069
T5,experimental,300
All,experimental,300
T3,experimental,15.106
All,experimental,15.106
T9,control,41.388
All,control,41.388
T10,control,211.732
All,control,211.732
T6,experimental,162.801
All,experimental,162.801
T4,control,56.692
All,control,56.692
T2,control,14.248
All,control,14.248
T2,control,113.086
All,control,113.086
T10,experimental,41.413
All,experimental,41.413
T9,experimental,279.31100000000004
All,experimental,279.31100000000004
T3,control,290.252
All,control,290.252
T8,experimental,171.80100000000002
All,experimental,171.80100000000002
T1,experimental,43.674
All,experimental,43.674
T4,experimental,265.151
All,experimental,265.151
T7,control,202.663
All,control,202.663
T5,control,115.41600000000001
All,control,115.41600000000001
T6,control,47.332
All,control,47.332
T1,experimental,37.495
All,experimental,37.495
T7,control,64.66799999999999
All,control,64.66799999999999
T5,control,85.93599999999999
All,control,85.93599999999999
T9,control,273.549
All,control,273.549
T10,experimental,113.722
All,experimental,113.722
T3,experimental,45.425000000000004
All,experimental,45.425000000000004
T8,control,122.21
All,control,122.21
T6,control,54.782000000000004
All,control,54.782000000000004
T2,experimental,34.95
All,experimental,34.95
T4,control,196.95000000000002
All,control,196.95000000000002
T2,experimental,57.139
All,experimental,57.139
T6,experimental,114.003
All,experimental,114.003
T3,experimental,40.573
All,experimental,40.573
T9,control,148.297
All,control,148.297
T5,experimental,29.155
All,experimental,29.155
T7,control,100.811
All,control,100.811
T1,experimental,8.354000000000001
All,experimental,8.354000000000001
T4,control,5.590999999999999
All,control,5.590999999999999
T2,control,39.804
All,control,39.804
T8,experimental,38.727
All,experimental,38.727
T10,experimental,36.219
All,experimental,36.219
T1,experimental,12.962
All,experimental,12.962
T6,control,22.555
All,control,22.555
T3,experimental,29.218000000000004
All,experimental,29.218000000000004
T8,experimental,19.931
All,experimental,19.931
T2,experimental,11.116
All,experimental,11.116
T4,experimental,300
All,experimental,300
T10,control,58.132
All,control,58.132
T5,control,15.929
All,control,15.929
T7,experimental,67.782
All,experimental,67.782
T9,control,67.077
All,control,67.077
T2,experimental,24.495
All,experimental,24.495
T3,experimental,15.915999999999999
All,experimental,15.915999999999999
T6,experimental,73.96000000000001
All,experimental,73.96000000000001
T10,control,75.761
All,control,75.761
T4,control,19.393
All,control,19.393
T1,control,21.849999999999998
All,control,21.849999999999998
T5,control,55.561
All,control,55.561
T7,experimental,76.052
All,experimental,76.052
T8,control,85.267
All,control,85.267
T9,experimental,103.26599999999999
All,experimental,103.26599999999999
T9,experimental,248.99
All,experimental,248.99
T10,experimental,187.157
All,experimental,187.157
T2,control,39.963
All,control,39.963
T4,control,300
All,control,300
T7,experimental,34.998
All,experimental,34.998
T6,experimental,12.668
All,experimental,12.668
T1,experimental,18.891
All,experimental,18.891
T5,experimental,48.22
All,experimental,48.22
T3,experimental,20.306
All,experimental,20.306
T8,experimental,35.758
All,experimental,35.758
T3,experimental,40.818000000000005
All,experimental,40.818000000000005
T10,experimental,54.978
All,experimental,54.978
T5,control,40.786
All,control,40.786
T1,experimental,21.216
All,experimental,21.216
T6,experimental,53.052
All,experimental,53.052
T2,experimental,15.108
All,experimental,15.108
T8,control,63.128
All,control,63.128
T9,control,300
All,control,300
T4,experimental,248.048
All,experimental,248.048
T7,control,172.64000000000001
All,control,172.64000000000001
T7,experimental,52.71
All,experimental,52.71
T3,control,40.846
All,control,40.846
T4,control,110.80699999999999
All,control,110.80699999999999
T8,control,80.486
All,control,80.486
T10,experimental,300
All,experimental,300
T9,experimental,56.778999999999996
All,experimental,56.778999999999996
T5,experimental,39.5
All,experimental,39.5
T6,experimental,42.161
All,experimental,42.161
T1,control,9.451
All,control,9.451
T2,control,20.478
All,control,20.478
T5,experimental,135.677
All,experimental,135.677
T7,control,252.364
All,control,252.364
T1,experimental,30.965
All,experimental,30.965
T10,experimental,113.57199999999999
All,experimental,113.57199999999999
T2,control,28.342000000000002
All,control,28.342000000000002
T3,experimental,39.842999999999996
All,experimental,39.842999999999996
T6,experimental,43.842
All,experimental,43.842
T8,experimental,34.715
All,experimental,34.715
T4,control,55.008
All,control,55.008
T9,control,100.56899999999999
All,control,100.56899999999999
T10,control,116.207
All,control,116.207
T1,experimental,15.032
All,experimental,15.032
T4,control,70.129
All,control,70.129
T6,experimental,81.06
All,experimental,81.06
T3,control,27.822
All,control,27.822
T7,control,46.26499999999999
All,control,46.26499999999999
T5,experimental,17.785
All,experimental,17.785
T9,experimental,90.736
All,experimental,90.736
T8,control,23.373
All,control,23.373
T2,experimental,13.342
All,experimental,13.342
T9,experimental,246.539
All,experimental,246.539
T5,experimental,46.477
All,experimental,46.477
T1,control,300
All,control,300
T3,experimental,61.089999999999996
All,experimental,61.089999999999996
T4,control,300
All,control,300
T8,control,66.154
All,control,66.154
T6,control,35.260000000000005
All,control,35.260000000000005
T2,control,16.752000000000002
All,control,16.752000000000002
T10,experimental,234.517
All,experimental,234.517
T7,experimental,90.90599999999999
All,experimental,90.90599999999999
T3,experimental,125.224
All,experimental,125.224
T7,control,172.519
All,control,172.519
T6,experimental,109.62899999999999
All,experimental,109.62899999999999
T4,control,63.913
All,control,63.913
T1,experimental,17.489
All,experimental,17.489
T9,control,179.226
All,control,179.226
T5,experimental,95.608
All,experimental,95.608
T8,experimental,143.788
All,experimental,143.788
T10,control,300
All,control,300
T2,control,12.943999999999999
All,control,12.943999999999999
T10,experimental,89.033
All,experimental,89.033
T8,control,86.051
All,control,86.051
T6,experimental,44.672
All,experimental,44.672
T2,experimental,57.787
All,experimental,57.787
T9,control,300
All,control,300
T4,experimental,141.784
All,experimental,141.784
T5,control,36.245
All,control,36.245
T7,experimental,98.97500000000001
All,experimental,98.97500000000001
T1,experimental,18.933
All,experimental,18.933
T3,control,20.864
All,control,20.864
T3,control,1.831
All,control,1.831
